{
  "Unit.Recruit": "Recruit",
  "Unit.Militia": "Militia",
  "Unit.Bowman": "Bowman",
  "Unit.Cavalry": "Cavalry",
  "Unit.Soldier": "Soldier",
  "Unit.Longbowman": "Longbowman",
  "Unit.EliteSoldier": "Elite Soldier",
  "Unit.Crossbowman": "Crossbowman",
  "Unit.Cannoneer": "Cannoneer",
  "Unit.Swordsman": "Swordsman",
  "Unit.MountedSwordsman": "Mounted Swordsman",
  "Unit.Knight": "Knight",
  "Unit.Marksman": "Marksman",
  "Unit.ArmoredMarksman": "Armored Marksman",
  "Unit.MountedMarksman": "Mounted Marksman",
  "Unit.Besieger": "Besieger",
  "Unit.TMC_BossFrostBearMatriarch": "Frost Bear Matriarch",
  "Unit.TMC_BossRavagingOx": "Ravaging Ox",
  "Unit.TMC_BossGargantuanLynx": "Gargantuan Lynx",
  "Unit.BanditBoss5": "Wild Mary",
  "Unit.BanditBoss4": "Chuck",
  "Unit.BanditBoss3": "Metal Tooth",
  "Unit.BanditRecruit": "Scavenger",
  "Unit.BanditMilitia": "Thug",
  "Unit.BanditCavalry": "Guard Dog",
  "Unit.BanditSoldier": "Roughneck",
  "Unit.BanditBowman": "Stone Thrower",
  "Unit.BanditLongbowman": "Ranger",
  "Unit.PirateCavalry": "Caltrop",
  "Unit.PirateRecruit": "Deckscrubber",
  "Unit.PirateMilitia": "Sabrerattler",
  "Unit.PirateBoss1": "Crazy Ship's Cook",
  "Unit.PirateBowman": "Knife Thrower",
  "Unit.PirateLongbowman": "Gunman",
  "Unit.PirateCaptain": "Petty Officer Second class",
  "Unit.KingdomRecruit": "Recruit Deserter",
  "Unit.KingdomMilitia": "Militia Deserter",
  "Unit.KingdomCavalry": "Cavalry Deserter",
  "Unit.KingdomSoldier": "Soldier Deserter",
  "Unit.KingdomEliteSoldier": "Elite Soldier Deserter",
  "Unit.KingdomBowman": "Bowman Deserter",
  "Unit.KingdomLongbowman": "Longbowman Deserter",
  "Unit.KingdomCrossbowman": "Crossbowman Deserter",
  "Unit.KingdomCannoneer": "Cannoneer Deserter",
  "Unit.CultBoss3": "Spawn of Hell",
  "Unit.CultRecruit": "Cultist",
  "Unit.CultBoss1": "Witch of the Swamp",
  "Unit.CultCavalry": "Shadowsneaker",
  "Unit.CultBowman": "Fanatic",
  "Unit.CultLongbowman": "Dark Priest",
  "Unit.CultCrossbowman": "Firedancer",
  "Unit.CultCanoneer": "Dancing Dervish",
  "Unit.RaidersRecruit": "Nomad",
  "Unit.RaidersCavalry": "Lance Rider",
  "Unit.RaidersCavalryBow": "Riding Bowman",
  "Unit.RaidersCavalryLongbow": "Riding Amazonian Guard",
  "Unit.RaidersCavalryCrossbow": "Cataphract",
  "Unit.RaidersBoss1": "Uproarious Bull",
  "Unit.RaidersBowman": "Composite Bowman",
  "Unit.NordsEliteSoldier": "Jomsviking",
  "Unit.NordsSoldier": "Housecarl",
  "Unit.NordsMilitia": "Karl",
  "Unit.NordsRecruit": "Thrall",
  "Unit.NordsBowman": "Valkyrie",
  "Unit.NordsCanoneer": "Berserk",
  "Unit.NeutralCavalry": "Grey Wolf",
  "Unit.MayaRecruit": "Tribesman",
  "Unit.MayaCavalry": "Shaman",
  "Unit.MayaCanoneer": "Jaguar Warrior",
  "Unit.WildlifeRecruit": "Boar",
  "Unit.WildlifeMilitia": "Bear",
  "Unit.WildlifeBowman": "Wolf",
  "Unit.WildlifeLongbowman": "Wolf Packleader",
  "Unit.WildlifeCavalry": "Fox",
  "Unit.WildlifeCannoneer": "Giant",
  "Unit.EpicRaidKingdomRecruit": "Royal Recruit",
  "Unit.EpicRaidKingdomMilitia": "Royal Militia",
  "Unit.EpicRaidKingdomBowman": "Royal Bowman",
  "Unit.EpicRaidKingdomLongbowman": "Royal Longbowman",
  "Unit.EpicRaidKingdomCavalry": "Royal Cavalry",
  "Unit.EpicRaidKingdomCannoneer": "Royal Cannoneer",
  "Unit.OrientalBanditRecruit": "Sword Clasher",
  "Unit.OrientalBanditMilitia": "Sword Wielder",
  "Unit.OrientalBanditSoldier": "Sword Master",
  "Unit.OrientalBanditCavalry": "Horseman",
  "Unit.OrientalBanditBowman": "Dune Marksman",
  "Unit.OrientalBanditLongbowman": "Desert Marksman",
  "Unit.OrientalBanditCavalryBowman": "Mounted Bowman",
  "Unit.OrientalBanditCanoneer": "Stone Cannon",
  "Unit.OrientalSailorRecruit": "Sailor",
  "Unit.OrientalSailorMilitia": "Battle Hardened Sailor",
  "Unit.OrientalSailorCavalry": "Mounted Sailor",
  "Unit.OrientalSailorBowman": "Boatswain",
  "Unit.OrientalSailorLongbowman": "Petty Officer Second Class",
  "Unit.OrientalSailorCanoneer": "Cannon Master",
  "Unit.OrientalApe1": "Stick-wielding Ape",
  "Unit.OrientalApe2": "Stone-throwing Ape",
  "Unit.OrientalApe3": "Alpha Ape",
  "Unit.OrientalApe4": "Nervous Ape",
  "Unit.BlondeBowman": "Blonde Bowman",
  "Unit.DefensiveMiner": "Defensive Miner",
  "Unit.GoldenGuard": "Golden Guard",
  "Unit.RecklessRider": "Reckless Rider",
  "Unit.FirmDefender": "Firm Defender",
  "Unit.SlickBanditBoss": "Slick Bandit Boss",
  "Unit.PartyCrasherRecruit": "Rascal",
  "Unit.PartyCrasherMilitia": "Vandal",
  "Unit.PartyCrasherSoldier": "Bully",
  "Unit.PartyCrasherCavalry": "Prankster",
  "Unit.PartyCrasherBowman": "Ruffian",
  "Unit.PartyCrasherLongbowman": "Scoundrel",
  "Unit.PartyCrasherCrossbowman": "Cad",
  "Unit.PartyCrasherEliteSoldier": "Grouch",
  "Unit.PartyCrasherCannoneer": "Whiner",
  "Unit.PartyCrasherEliteCavalry": "Scallywag",
  "Unit.Deer_Unit": "Deer",
  "Unit.EliteWildlifeRecruit": "Frost Ibex",
  "Unit.EliteWildlifeMilitia": "Frost Bear",
  "Unit.EliteWildlifeCavalry": "Frost Fox",
  "Unit.EliteWildlifeAir": "Frost Eagle",
  "Unit.EliteWildlifeBowman": "Frost Wolf",
  "Unit.EliteWildlifeLongbowman": "Frost Leopard",
  "Unit.EliteWildlifeCannoneer": "Frost Giant",
  "Unit.EnemyCannoneer": "Cannoneer",
  "Unit.MiniGolemRecruit": "Miniature Clay Golem",
  "Unit.MiniGolemMilitia": "Miniature Rock Golem",
  "Unit.MiniGolemCavalry": "Miniature Ice Golem",
  "Unit.MiniGolemCannoneer": "Miniature Lava Golem",
  "Unit.BanditBoss1": "Skunk",
  "Unit.BanditBoss2": "One-Eyed Bert",
  "Unit.KingdomBoss1": "Sir Robin",
  "Unit.KingdomBoss2": "Big Bertha",
  "Unit.CultBoss2": "Dark High Priest",
  "Unit.CultBoss4": "Preacher of Flames",
  "Unit.EpicRaidBoss1": "Giant Bogor",
  "Unit.EpicRaidBoss2": "Giant Gogor",
  "Unit.EpicRaidBoss3": "Unicorn",
  "Unit.EpicRaidBoss4": "Furious Boar",
  "Unit.EpicRaidBoss5": "Evil King",
  "Unit.EpicRaidBoss6": "Iron Fist",
  "Unit.EpicRaidBoss7": "Giant Bear",
  "Unit.EpicRaidBoss8": "Rivaling Tailor",
  "Unit.EpicRaidBoss9": "Black Bull",
  "Unit.EpicRaidBoss10": "Dark Magician",
  "Unit.EpicRaidBoss11": "Lying Goat",
  "Unit.EpicRaidBoss12": "Cudgel Claus",
  "Unit.EpicRaidBoss13": "Assassin",
  "Unit.EpicRaidBoss14": "Greedy Inn-Keeper",
  "Unit.EpicRaidBossPiper": "The Pied Piper of Hamelin",
  "Unit.EpicRaidBossMayor": "The Mayor",
  "Unit.EpicRaidBossRatKing": "The King of Rats",
  "Unit.EpicRaidBossEvilQueen": "Ilsebille, the Evil Queen",
  "Unit.EpicRaidBossHuntsman": "Royal Huntsmen Leader",
  "Unit.EpicRaidBossStepmother": "The Evil Stepmother",
  "Unit.EpicRaidBossCaptain": "Royal Captain",
  "Unit.EpicRaidBossJuggernaut": "Royal Juggernaut",
  "Unit.OrientalBanditBoss1": "Shrewd Thief",
  "Unit.OrientalBanditBoss2": "Smart Thief",
  "Unit.OrientalBanditBoss3": "Mysterious Thief",
  "Unit.OrientalBanditBoss4": "Treacherous Thief",
  "Unit.OrientalBanditBoss5": "Snooty Thief",
  "Unit.OrientalBanditBoss6": "Grayed Thief",
  "Unit.OrientalBanditBoss7": "Sneaking Thief",
  "Unit.OrientalBanditBoss8": "Scarred Thief",
  "Unit.OrientalBanditBoss9": "Greedy Thief",
  "Unit.OrientalBanditBoss10": "Silly Thief",
  "Unit.OrientalSailorBoss1": "Steersman",
  "Unit.OrientalSailorBoss2": "Mutineer",
  "Unit.OrientalSailorBoss3": "Captain",
  "Unit.OrientalBanditLord": "Bandit Lord",
  "Unit.OrientalCrumpyParrot": "Grumpy Parrot",
  "Unit.OrientalOasisGuardian": "Oasis Guardian",
  "Unit.OrientalBolderWorm": "Boulder Worm",
  "Unit.OrientalGiantBat": "Giant Bat",
  "Unit.OrientalGiantBlossom1": "Hungry Blossom",
  "Unit.OrientalGiantBlossom2": "Fierce Blossom",
  "Unit.OrientalGiantBlossom3": "Bulbous Blossom",
  "Unit.OrientalLibraryBoss": "Library Golem",
  "Unit.OrientalStoneStatue1": "Large Stone Statue",
  "Unit.OrientalStoneStatue2": "Mossy Stone Statue",
  "Unit.OrientalCannonTower1": "Giant Cannon",
  "Unit.OrientalInformant": "Informant",
  "Unit.OrientalGiantSeaSnake": "Giant Sea Snake",
  "Unit.OrientalGuard1": "Grumpy Guard",
  "Unit.OrientalGuard2": "Insane Guard",
  "Unit.OrientalCorruptedBolderWorm": "Corrupted Boulder Worm",
  "Unit.OrientalCorruptedGiantBat": "Corrupted Giant Bat",
  "Unit.ChupacabraBoss": "El Chupacabra",
  "Unit.DragonBoss": "Ancient Dragon",
  "Unit.PartyCrasherBoss1": "Denis the Delinquent",
  "Unit.PartyCrasherBoss2": "Alex the Troublemaker",
  "Unit.PartyCrasherBoss3": "Bob the Miscreant",
  "Unit.ChristmasBoss1": "Croaker",
  "Unit.BirthdayShaman": "Mystical Shaman",
  "Unit.TMC_v1_NordsRightHandBoss": "Steel Beard",
  "Unit.TMC_ColossalEagleBoss": "Colossal Eagle",
  "Unit.TMC_BossMammoth": "Mammoth",
  "Unit.TMC_BossWinterTerror": "Winter Terror",
  "Unit.TMC_BossSmilodon": "Smilodon",
  "Unit.TMC_BossEnormousIbex": "Enormous Ibex",
  "Unit.TMC_BossGhastlyWolf": "Ghastly Wolf",
  "Unit.TMC_BossParagonElk": "Paragon Elk",
  "Unit.TMC_BossFrostGiantKing_0": "Risi",
  "Unit.TMC_BossFrostGiantKing_1": "Risi",
  "Unit.TMC_BossFrostGiantKing_2": "Risi",
  "Unit.TMC_BossFrostGiantKing_3": "Risi",
  "Unit.TMC_BossFrostGiantKing_4": "Risi",
  "Unit.TMC_BossNordsLeader": "Bandit Lord Björn",
  "Unit.MadScientistBoss": "Mad Scientist",
  "Unit.DarkLordBoss": "Dark Lord",
  "Unit.ChristmasBossTwin1": "Ribbitha",
  "Unit.ChristmasBossTwin2": "Ribbitha",
  "Unit.ChristmasBossTwin3": "Ribbitha",
  "Unit.TreasureShipLoot": "Treasure",
  "Unit.General": "General",
  "Unit.StarGeneral2": "Master of Defense",
  "Unit.StarGeneral3": "Master of Martial Arts",
  "Unit.HalloweenGeneralDracul": "Lord Dracul",
  "Unit.GeneralVargus": "Champion Vargus",
  "Unit.GeneralAnslem": "Champion Anslem",
  "Unit.GeneralNusala": "Champion Nusala",
  "Unit.MasterGeneral": "Battle Hardened General",
  "Unit.HalloweenGeneral": "Grim Reaper General",
  "Unit.RetailBoxGeneral": "General Bighelmet",
  "Unit.EasterGeneral": "Veteran",
  "Unit.RetailBox2General": "General Log",
  "Unit.MajorGeneral": "Major General",
  "Unit.GeneralMary": "General Mary Christmas",
  "Unit.MedicGeneral": "Field Medic General",
  "Unit.MadScientistGeneral": "Mad Scientist",
  "Unit.BorisGeneral": "General Boris",
  "Unit.Anniversary2019General": "Older Gemini General",
  "Unit.Halloween2019General": "Younger Gemini General",
  "Unit.Xmas2019General": "Steadfast General",
  "Unit.AssassinGeneral": "Cloaked General",
  "Unit.SylvanaGeneral": "General Sylvana",
  "Unit.GeneralTrembleBeard": "General Tremble Beard",
  "Unit.GhostGeneral": "Ghost General",
  "Unit.FrostyGeneral": "Frosty General",
  "Unit.LonerGeneral": "Loner General",
  "Unit.GeneralLoudmouth": "General Loudmouth",
  "Adv.MadHenry": "Wild Mary",
  "Adv.WitchOfTheSwamp": "Witch of the Swamp",
  "Adv.Horseback": "Horseback",
  "Adv.Traitors": "Traitors",
  "Adv.Outlaws": "Outlaws",
  "Adv.TheDarkPriests": "The Dark Priests",
  "Adv.TheDarkBrotherhood": "The Dark Brotherhood",
  "Adv.VictorTheVicious": "Victor The Vicious",
  "Adv.StealingFromTheRich": "Stealing From The Rich",
  "Adv.SonsOfTheVeld": "Sons Of The Veld",
  "Adv.TheNords": "The Nords",
  "Adv.TheIslandOfThePirates": "The Island Of The Pirates",
  "Adv.OldFriends": "Old Friends",
  "Adv.MotherLove": "Motherly Love",
  "Adv.TheBlackKnights": "The Black Knights",
  "Adv.SecludedExperiments": "Secluded Experiments",
  "Adv.MoreSecludedExperiments": "More Secluded Experiments",
  "Adv.BanditNest": "Bandit Nest",
  "Adv.NewBanditNest": "Return to the Bandit's Nest",
  "Adv.RoaringBull": "Roaring Bull",
  "Adv.Gunpowder": "Gunpowder",
  "Adv.SurpriseAttack": "Surprise Attack",
  "Adv.ChristmasAdventureNormal": "Save the Christmas feast",
  "Adv.ChristmasAdventure2013": "The Stolen Sleigh",
  "Adv.TheNords2": "The Invasion of the Nords",
  "Adv.EoWEventAdventure": "The End Of The World",
  "Adv.MiadTheLostSkull": "The Lost Skull",
  "Adv.MiadTropicalSun": "Tropical Sun",
  "Adv.Birthday2013MilitaryAdventure1": "The Shaman",
  "Adv.Birthday2013MilitaryAdventure2": "Old Ruins",
  "Adv.TheValiantLittleTailor": "The Valiant Little Tailor",
  "Adv.TheCleverLittleTailor": "The Clever little Tailor",
  "Adv.TheHeroicLittleTailor": "The Heroic Little Tailor",
  "Adv.TheSonsOfTheLittleTailor": "The Sons of the Little Tailor",
  "Adv.TheBetrayedLittleTailor": "The Betrayed Little Tailor",
  "Adv.MiadPirateLife": "Pirate Life",
  "Adv.MiadSleepyReef": "Sleepy Reef",
  "Adv.MiadTheSleepingVolcano": "The Sleeping Volcano",
  "Adv.TheSiege": "The Siege",
  "Adv.BuccaneerRoundup": "The Buccaneer Roundup",
  "Adv.LakesideTreasure": "Lakeside Treasure",
  "Adv.TombRaiders": "Tomb Raiders",
  "Adv.RaidingTheRaiders": "Raiding the Raiders",
  "Adv.Whirlwind": "The Whirlwind",
  "Adv.MiadArcticExplosion": "Arctic Explosion",
  "Adv.MiadBastilleIsland": "Bastille Island",
  "Adv.MiadTikkiIsland": "Tikki Island",
  "Adv.1001NightsWoodcutter": "Ali Baba the Young Woodcutter",
  "Adv.1001NightsFirstThief": "Ali Baba and the First Thief",
  "Adv.1001NightsSecondThief": "Ali Baba and the Second Thief",
  "Adv.1001NightsThirdThief": "Ali Baba and the Third Thief",
  "Adv.1001NightsTreasureKnowledge": "Ali Baba and the Treasure of Knowledge",
  "Adv.1001NightsTreasureWisdom": "Ali Baba and the Treasure of Wisdom",
  "Adv.1001NightsBesiegedCity": "Sinbad and the Besieged City",
  "Adv.1001NightsOilLamp": "Aladdin and the Oil Lamp",
  "Adv.1001NightsSeaSnake": "Sinbad and the Sea Snake",
  "Adv.1001NightsPrincess": "Aladdin and the Beautiful Princess",
  "Adv.BuffAdventures_Evil_Queen_Fisherman": "The Fisherman and his Wife",
  "Adv.BuffAdventures_Evil_Queen_Snow_White": "Snow White",
  "Adv.BuffAdventures_Evil_Queen_Hansel_Gretel": "Hansel and Gretel",
  "Adv.BuffAdventures_Evil_Queen_Red_Riding_Hood": "Red Riding Hood",
  "Adv.BuffAdventures_Evil_Queen_Piper_Of_Hamelin": "The Pied Piper of Hamelin",
  "Adv.BuffAdventures_ElChupacabra": "El Chupacabra",
  "Adv.BuffAdventures_ValuableIntel": "Valuable Intel",
  "Adv.BuffAdventures_OneStepAhead": "One Step Ahead",
  "Adv.BuffAdventures_OfSongsAndCurses": "Of Songs and Curses",
  "Adv.BuffAdventures_RaidOfTheNords": "Raid of the Nords",
  "Adv.BuffAdventures_LostCity": "The Lost City",
  "Adv.BuffAdventures_DragonsRoost": "The Dragon's Roost",
  "Adv.BuffAdventures_TMC_At_the_Foot_of_the_Mountain": "At the Foot of the Mountain",
  "Adv.BuffAdventures_TMC_Unknown_Regions": "Unknown Regions",
  "Adv.BuffAdventures_TMC_Mountain_Labyrinth": "Mountain Labyrinth",
  "Adv.BuffAdventures_TMC_The_People_of_the_Mountain": "The People of the Mountain",
  "Adv.BuffAdventures_TMC_A_giant_Battle": "A Giant Battle",
  "Adv.HWCampaign1_Adv1": "Monsters from the Mist",
  "Adv.HWCampaign1_Adv2": "Looming Danger",
  "Adv.HWCampaign1_Adv3": "The Dark Gate",
  "Adv.XMAS_Cookie_Hard_2": "Winter Wonderland revisited",
  "Adv.SplitCity": "Split City in Summer",
  "Adv.SplitCityFall": "Split City in Fall",
  "Adv.Birthday2020CakeMap": "Misty Cake",
  "Adv.BonabertiBusiness": "Bonaberti Business",
  "Skill.UnitSkillBonusDamageBuildings": "Demolition",
  "Skill.UnitSkillSplashDamage": "Splash damage",
  "Skill.UnitSkillAttackWeakestTarget": "Flanking",
  "Skill.UnitSkillInitiativeNormal": "Normal",
  "Skill.UnitSkillFirstStrike": "First strike",
  "Skill.UnitSkillLastStrike": "Last strike",
  "Skill.Skill_GeneralAttacksTwice": "Lightning Slash",
  "SkillDesc.Skill_GeneralAttacksTwice": "The general attacks twice per round. The second attack's initiative is \"Last Strike\".",
  "Skill.Skill_IncreaseAccuracy": "Master Planner",
  "SkillDesc.Skill_IncreaseAccuracy": "Adds {3}% to this army's accuracy.",
  "Skill.Skill_GetStarCoins": "Bounty Hunter",
  "SkillDesc.Skill_GetStarCoins": "After completing an adventure, gain 1 star coin per {0} XP worth of enemies defeated by this army.",
  "Skill.Skill_InstantRecovery": "1-Up",
  "SkillDesc.Skill_InstantRecovery": "The general recovers instantly after his/her first defeat in every adventure.",
  "Skill.Skill_IncreaseEliteSoldierSplashAndAD": "Cleave",
  "SkillDesc.Skill_IncreaseEliteSoldierSplashAndAD": "Increases the attack damage of your elite soldiers by {3}, and gives their attacks a {8}% chance of dealing splash damage.",
  "Skill.Skill_IncreaseHeavyAD": "Weekly Maintenance",
  "SkillDesc.Skill_IncreaseHeavyAD": "Increases attack damage of your heavy units by {3}.",
  "Skill.Skill_IncreaseCapacity": "Garrison Annex",
  "SkillDesc.Skill_IncreaseCapacity": "Increases unit capacity by {3}.",
  "Skill.Skill_IncreaseCombatSpeed": "Confident Leader",
  "SkillDesc.Skill_IncreaseCombatSpeed": "Reduces the length of combat rounds by {0}%.",
  "Skill.Skill_IncreaseSwiftSplashAndAD": "Unstoppable Charge",
  "SkillDesc.Skill_IncreaseSwiftSplashAndAD": "Increases maximum attack damage of your swift units by {3}, and gives their attacks a {4}% chance of dealing splash damage.",
  "Skill.Skill_IncreaseADEveryRound": "Battle Frenzy",
  "SkillDesc.Skill_IncreaseADEveryRound": "Increases attack damage of this army by {3}% after every combat round.",
  "Skill.Skill_IncreaseXP": "Fast Learner",
  "SkillDesc.Skill_IncreaseXP": "Increases XP gained from enemy units defeated by this army by {0}%.",
  "Skill.Skill_IncreaseRecoverySpeed": "Just a Flesh Wound",
  "SkillDesc.Skill_IncreaseRecoverySpeed": "Reduces the general's recovery time by {0}%.",
  "Skill.Skill_IncreaseLongbowmanAndMarksmanAD": "Sniper Training",
  "SkillDesc.Skill_IncreaseLongbowmanAndMarksmanAD": "Increases your longbowmen's and regular marksmen's minimum attack damage by {4}%, and the maximum by {0}%.",
  "Skill.Skill_DescreaseBossHP": "Overrun",
  "SkillDesc.Skill_DescreaseBossHP": "Decreases HP of enemy bosses by {0}%.",
  "Skill.Skill_GetRecruits": "Hostile Takeover",
  "SkillDesc.Skill_GetRecruits": "When this army wins a battle, gain 1 recruit mercenary per {0} XP worth of enemies defeated.",
  "Skill.Skill_IncreaseTravelSpeed": "Navigation Crash Course",
  "SkillDesc.Skill_IncreaseTravelSpeed": "Reduces the general's travel time by {0}%.",
  "Skill.Skill_IncreaseBowmanMaximumAD": "Rapid Fire",
  "SkillDesc.Skill_IncreaseBowmanMaximumAD": "Increases maximum attack damage of your bowmen by {3}.",
  "Skill.Skill_IncreaseGeneralSplashAndAD": "Juggernaut",
  "SkillDesc.Skill_IncreaseGeneralSplashAndAD": "Increases the general's attack damage by {3}, and gives his/her attacks a {8}% chance of dealing splash damage.",
  "Skill.Skill_ResurrectLosses": "First Aid",
  "SkillDesc.Skill_ResurrectLosses": "Recovers {0}% of lost units after every battle.",
  "Skill.Skill_IncreasePeacefulMovementSpeed": "Jog",
  "SkillDesc.Skill_IncreasePeacefulMovementSpeed": "Adds {0}% to the general's movement speed when returning to or transferring the garrison.",
  "Skill.Trait_Anslem": "Dazzle",
  "SkillDesc.Trait_Anslem": "Reduces the accuracy of enemy units to 0%.",
  "Skill.Trait_Vargus": "Intercept",
  "SkillDesc.Trait_Vargus": "Enemy units deal 5% less damage, and cannot use flanking.",
  "Skill.Trait_Nusala": "Explosive Ammunition",
  "SkillDesc.Trait_Nusala": "Your offense units gain splash damage and flanking.",
  "Skill.Trait_MaryDoubleXP": "Have a Treat",
  "SkillDesc.Trait_MaryDoubleXP": "Increases XP gained from enemy units defeated by this army by 100%.",
  "Skill.Trait_MedicResurrectLosses": "Field Surgery",
  "SkillDesc.Trait_MedicResurrectLosses": "Recovers 30% of lost units after every battle.",
  "Skill.Trait_MadScientist": "Bombastic Personality",
  "SkillDesc.Trait_MadScientist": "Increases attack damage of your heavy units by 100%.",
  "Skill.Trait_Boris": "Astute Strategist",
  "SkillDesc.Trait_Boris": "Damage of your swift units increased by 50% and decreased for enemy units. +50% combat XP.",
  "Skill.Trait_Anniversary2019General": "Magnanimous",
  "SkillDesc.Trait_Anniversary2019General": "Even more kind-hearted than his father, he recovers 20% of lost units after every battle.",
  "Skill.Trait_Halloween2019General": "Rogue Wardens",
  "SkillDesc.Trait_Halloween2019General": "Rogue Wardens: Defensive units gain flanking, and 10% increased accuracy.",
  "Skill.Trait_Xmas2019General": "Supple",
  "SkillDesc.Trait_Xmas2019General": "Swift Units gain Flanking, Splash Damage, Accuracy +20% and Damage +20%.",
  "Skill.Trait_AssassinGeneral": "Ambush",
  "SkillDesc.Trait_AssassinGeneral": "Boss and Defense unit HP reduced by 25%. Boss damage reduced by 25%.",
  "Skill.Trait_TrembleBeard": "Sageness",
  "SkillDesc.Trait_TrembleBeard": "Increases XP gained by 200% for enemy units defeated by his army. Natural Bounty Hunter, does not stack with skills.",
  "Skill.Trait_Sylvana": "Astute Strategist",
  "SkillDesc.Trait_Sylvana": "Increases the damage dealt by swift units by 50%, while decreasing the damage dealt by enemy units. +50% combat XP.",
  "Skill.Trait_GhostGeneral": "Ghostly",
  "SkillDesc.Trait_GhostGeneral": "Unit HP +20%, enemy accuracy is halved, travels 3x as fast, recovers 4x faster and recovers 20% lost units. Natural 1-Up, does not stack with skills.",
  "Skill.Trait_FrostyGeneral": "Cold as Ice",
  "SkillDesc.Trait_FrostyGeneral": "Your defensive units gain splash damage and +30% attack damage.",
  "Skill.Trait_LonerGeneral": "Lone Wolf",
  "SkillDesc.Trait_LonerGeneral": "Recovers 10% of lost units after every battle. Offensive units get a 50% attack bonus.",
  "Skill.Trait_Loudmouth": "Loudmouth",
  "SkillDesc.Trait_Loudmouth": "Enemy units deal 10% less damage and cannot attack your weakest units first.",
  "UI.Damage": "Attack Damage (AD)",
  "UI.Accuracy": "Accuracy",
  "UI.Hitpoints": "Hit Points (HP)",
  "UI.Unitcapacity": "Unit Capacity",
  "UI.Skills": "Skills:",
  "UI.SkillTree": "Skill tree",
  "UI.XP": "Experience Points",
  "UI.StarCoin": "Star Coins",
  "UI.Level": "Level",
  "UI.ScoutingPost": "Scouting Post",
  "UI.Premium": "Premium",
  "UI.PremiumFriend": "Prestigious Friend Buff",
  "UI.Event": "Event",
  "UI.Type_Venture": "Venture",
  "UI.Type_Mini": "Mini mission",
  "UI.Type_Mission": "Mission",
  "UI.Type_Coop": "Co-op mission",
  "UI.Campaign_ArabianNights": "Arabian Nights",
  "UI.Campaign_TheLittleTailor": "The Little Tailor",
  "UI.Campaign_TheEvilQueen": "The Evil Queen",
  "UI.Campaign_TheMountainClan": "The Mountain Clan",
  "UI.Theme_Easter": "Easter",
  "UI.Theme_Halloween": "Halloween",
  "UI.Theme_Christmas": "Christmas",
  "UI.Theme_Retro": "Retro",
  "UI.Theme_Apocalypse": "Apocalypse",
  "UI.MCCSlipperyIce": "Slippery Ice\nYour Swift and Defense units' mobility is limited here. Their attack damage is reduced by 15%.",
  "UI.MCCPiercingCold": "Piercing Cold\nThe cold is taking its toll on your troops. Your units' HP is reduced by 10%.",
  "UI.MCCSnowStorms": "Snow Storms\nIt's hard to see in this storm! Your units' accuracy is reduced by 15%.",
  "UI.MCCSpecializedWeapons": "Specialized Weapons (Outpost Armory)\nIncreases attack damage of your armies by 5%.",
  "UI.MCCAdvancedStrategies": "Advanced Strategies (Outpost Headquarters)\nYour units follow advanced strategies, reducing enemy bosses' HP by 5%.",
  "UI.RitualWater": "Ritual Offering: Water\nAn offering for an ancient ritual. Use on the Altar of Water to invigorate your horses. \nMakes your knights and other mounted units always deal maximum damage for the duration of the adventure.\n\nThis is a venture buff that's only usable in a certain venture. It will be deleted when the venture is no longer active",
  "UI.RitualNature": "Ritual Offering: Nature\nAn offering for an ancient ritual. Use on the Altar of the Nature to impede the mobility of enemy cavalry with plant growth.\nMakes enemy horsemen and mounted bowmen always deal minimum damage for the duration of the adventure.\n\nThis is a venture buff that's only usable in a certain venture. It will be deleted when the venture is no longer active",
  "UI.RitualMetal": "Ritual Offering: Metal\nAn offering for an ancient ritual. Use on the Altar of Metal to magically empower your metal weaponry. \nMakes your sword-wielding units and artillery always deal maximum damage for the duration of the adventure.\n\nThis is a venture buff that's only usable in a certain venture. It will be deleted when the venture is no longer active",
  "UI.RitualStone": "Ritual Offering: Stone\nAn offering for an ancient ritual. Use on the Altar of Stone to make your army's skin tough as stone, easily deflecting melee strikes. \nMakes enemy swordclashers, swordwielders and swordmasters always deal minimum damage for the duration of the adventure.\n\nThis is a venture buff that's only usable in a certain venture. It will be deleted when the venture is no longer active",
  "UI.RitualFire": "Ritual Offering: Fire\nAn offering for an ancient ritual. Use on the Altar of Fire to enhance the firepower of your army's arquebuses. \nMakes your arquebuse-wielding units always deal maximum damage for the duration of the adventure.\n\nThis is a venture buff that's only usable in a certain venture. It will be deleted when the venture is no longer active",
  "UI.RitualWind": "Ritual Offering: Wind\nAn offering for an ancient ritual. Use on the Altar of Wind to protect your army from arrows with a barrier of wind.\nMakes enemy dune marksmen, desert marksmen and mounted bowmen always deal minimum damage for the duration of the adventure.\n\nThis is a venture buff that's only usable in a certain venture. It will be deleted when the venture is no longer active",
  "UI.AdventureWeatherConditionStorm": "Weather: Hurricane",
  "UI.AdventureWeatherConditionHeat": "Weather: Bright Sunshine",
  "UI.AdventureWeatherConditionFog": "Weather: Heavy Fog",
  "UI.AdventureWeatherConditionFrost": "Weather: Hard Frost",
  "UI.AdventureWeatherConditionStormDesc": "Fighting within a hurricane means hits come harder! \nZone Effect: The minimum and maximum damage of all units (including enemy units) is increased by 20%!",
  "UI.AdventureWeatherConditionHeatDesc": "In such beautiful sunshine, everyone feels reinvigorated.\nZone Effect: The HP of all units (including enemy units) are increased by 20%!",
  "UI.AdventureWeatherConditionFogDesc": "In such dense fog, sneaking up on your enemies is no challenge.\nZone Effect: All units (including enemy units) gain flanking!",
  "UI.AdventureWeatherConditionFrostDesc": "When weighty defenders throw a punch in such frost, every surrounding unit will be swiped of their feet.\nZone Effect: All defense units (including enemy defense units) gain splash damage!",
  "UI.Arrows": "Rain of Arrows",
  "UI.Assassin": "Assassin",
  "UI.Ballista": "Ballista",
  "UI.SmallCatapult": "Small Catapult",
  "UI.BigCatapult": "Big Catapult",
  "UI.FlameArrows": "Rain of Flaming Arrows",
  "UI.ChocoArrows": "Chocolate Covered Arrows",
  "UI.BlacktreeArrows": "Blacktree Arrow",
  "UI.CupidsArrows": "Cupid's Arrow",
  "UI.WeakPotion": "Weak Point Potion",
  "UI.RangedSupport": "Ranged Support"
}