{
  "tunniste": "eq1",
  "nimi": "Výchozí",
  "kuvake": "",
  "lisätiedot": "",
  "xpEventKerroin": 1.0,
  "vaaditutKenraalit": {},
  "vaaditutJoukot": {},
  "leirimerkinnät": {
    "10760": {
      "tunniste": "15",
      "tyyppi": 1,
      "lisätiedot": "",
      "sektori": 3,
      "ankkuri": 1,
      "muoto": 0,
      "hyökkäysaallot": [],
      "päähyökkäys": {
        "ui_id": -1,
        "kenraali": "Ghost-0408190645",
        "aikaleima": "2021-10-01T20:49:28.9234715+02:00",
        "joukot": {
          "Knight": 230
        },
        "menetykset": {
          "Knight": {
            "min": 37,
            "max": 54
          }
        }
      }
    },
    "10949": {
      "tunniste": "18",
      "tyyppi": 1,
      "lisätiedot": "",
      "sektori": 4,
      "ankkuri": 1,
      "muoto": 0,
      "hyökkäysaallot": [],
      "päähyökkäys": {
        "ui_id": -1,
        "kenraali": "Sylvana-0902211159",
        "aikaleima": "2021-10-01T20:51:38.6039467+02:00",
        "joukot": {
          "MountedSwordsman": 50,
          "MountedMarksman": 145
        },
        "menetykset": {
          "MountedSwordsman": {
            "min": 44,
            "max": 47
          }
        }
      }
    },
    "11172": {
      "tunniste": "",
      "lisätiedot": "",
      "sektori": 1,
      "ankkuri": 1,
      "muoto": 0,
      "hyökkäysaallot": []
    },
    "11348": {
      "tunniste": "9",
      "tyyppi": 1,
      "lisätiedot": "",
      "sektori": 2,
      "ankkuri": 1,
      "muoto": 0,
      "hyökkäysaallot": [],
      "päähyökkäys": {
        "ui_id": -1,
        "kenraali": "Sylvana-0331234359",
        "aikaleima": "2021-09-02T21:28:13.8600479+02:00",
        "joukot": {
          "MountedMarksman": 195
        },
        "menetykset": {}
      }
    },
    "11720": {
      "tunniste": "1",
      "tyyppi": 1,
      "lisätiedot": "",
      "sektori": 1,
      "ankkuri": 1,
      "muoto": 0,
      "hyökkäysaallot": [
        {
          "kenraali": "Nusala-0209184310",
          "yksikkö": "Recruit",
          "määrä": 180
        }
      ],
      "päähyökkäys": {
        "ui_id": -1,
        "kenraali": "Ghost-0408190645",
        "aikaleima": "2021-10-01T21:02:52.9622855+02:00",
        "joukot": {
          "MountedSwordsman": 65,
          "MountedMarksman": 165
        },
        "menetykset": {
          "MountedSwordsman": {
            "min": 51,
            "max": 57
          }
        }
      }
    },
    "11791": {
      "tunniste": "",
      "lisätiedot": "",
      "sektori": 1,
      "ankkuri": 1,
      "muoto": 0,
      "hyökkäysaallot": []
    },
    "12098": {
      "tunniste": "5",
      "tyyppi": 1,
      "lisätiedot": "",
      "sektori": 1,
      "ankkuri": 1,
      "muoto": 0,
      "hyökkäysaallot": [],
      "päähyökkäys": {
        "ui_id": -1,
        "kenraali": "MG-0209193515",
        "aikaleima": "2021-09-02T21:22:42.0784739+02:00",
        "joukot": {
          "MountedSwordsman": 35,
          "MountedMarksman": 240
        },
        "menetykset": {
          "MountedSwordsman": {
            "min": 29,
            "max": 30
          }
        }
      }
    },
    "12145": {
      "tunniste": "10",
      "tyyppi": 1,
      "lisätiedot": "",
      "sektori": 2,
      "ankkuri": 1,
      "muoto": 0,
      "hyökkäysaallot": [],
      "päähyökkäys": {
        "ui_id": -1,
        "kenraali": "Ghost-0408190645",
        "aikaleima": "2021-09-02T21:31:05.4376313+02:00",
        "joukot": {
          "Swordsman": 40,
          "Knight": 190
        },
        "menetykset": {
          "Swordsman": {
            "min": 38,
            "max": 40
          },
          "Knight": {
            "min": 52,
            "max": 74
          }
        }
      }
    },
    "12395": {
      "tunniste": "16",
      "tyyppi": 1,
      "lisätiedot": "",
      "sektori": 3,
      "ankkuri": 1,
      "muoto": 0,
      "hyökkäysaallot": [],
      "päähyökkäys": {
        "ui_id": -1,
        "kenraali": "Sylvana-0331234359",
        "aikaleima": "2021-10-01T20:49:45.3714307+02:00",
        "joukot": {
          "MountedSwordsman": 65,
          "MountedMarksman": 130
        },
        "menetykset": {
          "MountedSwordsman": {
            "min": 56,
            "max": 62
          }
        }
      }
    },
    "12466": {
      "tunniste": "8",
      "tyyppi": 1,
      "lisätiedot": "",
      "sektori": 2,
      "ankkuri": 1,
      "muoto": 0,
      "hyökkäysaallot": [],
      "päähyökkäys": {
        "ui_id": -1,
        "kenraali": "MG-0209193515",
        "aikaleima": "2021-09-02T21:27:21.6857786+02:00",
        "joukot": {
          "MountedMarksman": 275
        },
        "menetykset": {}
      }
    },
    "12975": {
      "tunniste": "19",
      "tyyppi": 1,
      "lisätiedot": "",
      "sektori": 4,
      "ankkuri": 1,
      "muoto": 0,
      "hyökkäysaallot": [
        {
          "kenraali": "Nusala-0209184310",
          "yksikkö": "Recruit",
          "määrä": 180
        }
      ],
      "päähyökkäys": {
        "ui_id": -1,
        "kenraali": "Ghost-0408190645",
        "aikaleima": "2021-10-01T21:03:30.4821873+02:00",
        "joukot": {
          "MountedSwordsman": 55,
          "MountedMarksman": 175
        },
        "menetykset": {
          "MountedSwordsman": {
            "min": 48,
            "max": 55
          }
        }
      }
    },
    "14604": {
      "tunniste": "25",
      "tyyppi": 1,
      "lisätiedot": "",
      "sektori": 6,
      "ankkuri": 1,
      "muoto": 0,
      "hyökkäysaallot": [],
      "päähyökkäys": {
        "ui_id": -1,
        "kenraali": "Ghost-0408190645",
        "aikaleima": "2021-10-01T20:56:24.9108885+02:00",
        "joukot": {
          "Swordsman": 70,
          "MountedMarksman": 160
        },
        "menetykset": {
          "Swordsman": {
            "min": 54,
            "max": 65
          }
        }
      }
    },
    "14659": {
      "tunniste": "20",
      "tyyppi": 1,
      "lisätiedot": "",
      "sektori": 4,
      "ankkuri": 1,
      "muoto": 0,
      "hyökkäysaallot": [],
      "päähyökkäys": {
        "ui_id": -1,
        "kenraali": "Sylvana-0331234359",
        "aikaleima": "2021-10-01T20:52:07.5561023+02:00",
        "joukot": {
          "Swordsman": 15,
          "Knight": 180
        },
        "menetykset": {
          "Knight": {
            "min": 103,
            "max": 117
          }
        }
      }
    },
    "15779": {
      "tunniste": "22",
      "tyyppi": 1,
      "lisätiedot": "",
      "sektori": 5,
      "ankkuri": 1,
      "muoto": 0,
      "hyökkäysaallot": [],
      "päähyökkäys": {
        "ui_id": -1,
        "kenraali": "Sylvana-0902211159",
        "aikaleima": "2021-10-01T20:52:40.869261+02:00",
        "joukot": {
          "MountedSwordsman": 40,
          "MountedMarksman": 155
        },
        "menetykset": {
          "MountedSwordsman": {
            "min": 35,
            "max": 38
          }
        }
      }
    },
    "16502": {
      "tunniste": "11",
      "tyyppi": 1,
      "lisätiedot": "",
      "sektori": 2,
      "ankkuri": 1,
      "muoto": 0,
      "hyökkäysaallot": [],
      "päähyökkäys": {
        "ui_id": -1,
        "kenraali": "Ghost-0408190645",
        "aikaleima": "2021-09-02T21:31:20.7429414+02:00",
        "joukot": {
          "Swordsman": 230
        },
        "menetykset": {
          "Swordsman": {
            "min": 104,
            "max": 130
          }
        }
      }
    },
    "16602": {
      "tunniste": "2",
      "tyyppi": 1,
      "lisätiedot": "",
      "sektori": 1,
      "ankkuri": 1,
      "muoto": 0,
      "hyökkäysaallot": [
        {
          "kenraali": "MMA-0329140423",
          "yksikkö": "Recruit",
          "määrä": 220
        }
      ],
      "päähyökkäys": {
        "ui_id": -1,
        "kenraali": "MG-0209193515",
        "aikaleima": "2021-10-01T21:02:25.2731645+02:00",
        "joukot": {
          "MountedSwordsman": 60,
          "MountedMarksman": 215
        },
        "menetykset": {
          "MountedSwordsman": {
            "min": 54,
            "max": 56
          }
        }
      }
    },
    "16655": {
      "tunniste": "17",
      "tyyppi": 1,
      "lisätiedot": "",
      "sektori": 3,
      "ankkuri": 1,
      "muoto": 0,
      "hyökkäysaallot": [],
      "päähyökkäys": {
        "ui_id": -1,
        "kenraali": "Cloaked-0331235043",
        "aikaleima": "2021-10-01T20:50:15.1228296+02:00",
        "joukot": {
          "MountedSwordsman": 25,
          "MountedMarksman": 185
        },
        "menetykset": {
          "MountedSwordsman": {
            "min": 7,
            "max": 23
          }
        }
      }
    },
    "16803": {
      "tunniste": "3",
      "tyyppi": 1,
      "lisätiedot": "",
      "sektori": 1,
      "ankkuri": 1,
      "muoto": 0,
      "hyökkäysaallot": [],
      "päähyökkäys": {
        "ui_id": -1,
        "kenraali": "Sylvana-0331234359",
        "aikaleima": "2021-09-02T21:22:15.1048061+02:00",
        "joukot": {
          "MountedMarksman": 195
        },
        "menetykset": {}
      }
    },
    "17077": {
      "tunniste": "12",
      "tyyppi": 1,
      "lisätiedot": "",
      "sektori": 2,
      "ankkuri": 1,
      "muoto": 0,
      "hyökkäysaallot": [],
      "päähyökkäys": {
        "ui_id": -1,
        "kenraali": "Sylvana-0331234359",
        "aikaleima": "2021-09-02T21:31:40.6771934+02:00",
        "joukot": {
          "MountedMarksman": 195
        },
        "menetykset": {}
      }
    },
    "17967": {
      "tunniste": "7",
      "tyyppi": 1,
      "lisätiedot": "",
      "sektori": 2,
      "ankkuri": 1,
      "muoto": 0,
      "hyökkäysaallot": [],
      "päähyökkäys": {
        "ui_id": -1,
        "kenraali": "MG-0209193515",
        "aikaleima": "2021-09-02T21:28:01.4852914+02:00",
        "joukot": {
          "MountedMarksman": 275
        },
        "menetykset": {}
      }
    },
    "17968": {
      "tunniste": "23",
      "tyyppi": 1,
      "lisätiedot": "",
      "sektori": 5,
      "ankkuri": 1,
      "muoto": 0,
      "hyökkäysaallot": [],
      "päähyökkäys": {
        "ui_id": -1,
        "kenraali": "Sylvana-0331234359",
        "aikaleima": "2021-10-01T20:53:02.0287438+02:00",
        "joukot": {
          "MountedMarksman": 195
        },
        "menetykset": {}
      }
    },
    "18047": {
      "tunniste": "13",
      "tyyppi": 1,
      "lisätiedot": "",
      "sektori": 2,
      "ankkuri": 1,
      "muoto": 0,
      "hyökkäysaallot": [],
      "päähyökkäys": {
        "ui_id": -1,
        "kenraali": "Ghost-0408190645",
        "aikaleima": "2021-09-02T21:32:17.0448915+02:00",
        "joukot": {
          "Swordsman": 40,
          "Knight": 190
        },
        "menetykset": {
          "Swordsman": {
            "min": 31,
            "max": 40
          },
          "Knight": {
            "min": 8,
            "max": 17
          }
        }
      }
    },
    "18326": {
      "tunniste": "21",
      "tyyppi": 1,
      "lisätiedot": "",
      "sektori": 4,
      "ankkuri": 1,
      "muoto": 0,
      "hyökkäysaallot": [
        {
          "kenraali": "GeminiY-0301155824",
          "yksikkö": "Recruit",
          "määrä": 1
        }
      ],
      "päähyökkäys": {
        "ui_id": -1,
        "kenraali": "MG-0209193515",
        "aikaleima": "2021-10-01T20:59:27.3200861+02:00",
        "joukot": {
          "MountedSwordsman": 60,
          "Knight": 215
        },
        "menetykset": {
          "MountedSwordsman": {
            "min": 60,
            "max": 60
          },
          "Knight": {
            "min": 13,
            "max": 24
          }
        }
      }
    },
    "18852": {
      "tunniste": "6",
      "tyyppi": 1,
      "lisätiedot": "",
      "sektori": 1,
      "ankkuri": 1,
      "muoto": 0,
      "hyökkäysaallot": [
        {
          "kenraali": "MMA-0329140423",
          "yksikkö": "Recruit",
          "määrä": 220
        }
      ],
      "päähyökkäys": {
        "ui_id": -1,
        "kenraali": "Cloaked-0331235043",
        "aikaleima": "2021-10-01T21:00:17.4800579+02:00",
        "joukot": {
          "MountedSwordsman": 50,
          "MountedMarksman": 165
        },
        "menetykset": {
          "MountedSwordsman": {
            "min": 25,
            "max": 46
          }
        }
      }
    },
    "19319": {
      "tunniste": "14",
      "tyyppi": 1,
      "lisätiedot": "",
      "sektori": 3,
      "ankkuri": 1,
      "muoto": 0,
      "hyökkäysaallot": [],
      "päähyökkäys": {
        "ui_id": -1,
        "kenraali": "Sylvana-0902211159",
        "aikaleima": "2021-10-01T20:47:38.1242791+02:00",
        "joukot": {
          "Swordsman": 15,
          "Knight": 180
        },
        "menetykset": {
          "Swordsman": {
            "min": 7,
            "max": 14
          },
          "Knight": {
            "min": 83,
            "max": 93
          }
        }
      }
    },
    "19675": {
      "tunniste": "4",
      "tyyppi": 1,
      "lisätiedot": "",
      "sektori": 1,
      "ankkuri": 1,
      "muoto": 0,
      "hyökkäysaallot": [],
      "päähyökkäys": {
        "ui_id": -1,
        "kenraali": "MG-0209193515",
        "aikaleima": "2021-09-02T21:22:31.8955417+02:00",
        "joukot": {
          "MountedSwordsman": 35,
          "MountedMarksman": 240
        },
        "menetykset": {
          "MountedSwordsman": {
            "min": 29,
            "max": 30
          }
        }
      }
    },
    "19968": {
      "tunniste": "24",
      "tyyppi": 1,
      "lisätiedot": "",
      "sektori": 5,
      "ankkuri": 1,
      "muoto": 0,
      "hyökkäysaallot": [
        {
          "kenraali": "GeminiY-0301155824",
          "yksikkö": "Recruit",
          "määrä": 155
        }
      ],
      "päähyökkäys": {
        "ui_id": -1,
        "kenraali": "MG-0209193515",
        "aikaleima": "2021-10-01T20:55:58.6303768+02:00",
        "joukot": {
          "Knight": 275
        },
        "menetykset": {
          "Knight": {
            "min": 39,
            "max": 45
          }
        }
      }
    }
  },
  "parhaatHyökkäykset": {},
  "parhaatHyökkäyksetMMA": {},
  "comboHyökkäykset": {},
  "merkit": [],
  "nuolet": []
}