{
  "tunniste": "eq3",
  "nimi": "Výchozí",
  "kuvake": "",
  "lisätiedot": "",
  "xpEventKerroin": 1.0,
  "vaaditutKenraalit": {},
  "vaaditutJoukot": {},
  "leirimerkinnät": {
    "10491": {
      "tunniste": "3",
      "tyyppi": 1,
      "lisätiedot": "",
      "sektori": 3,
      "ankkuri": 1,
      "muoto": 0,
      "hyökkäysaallot": [
        {
          "kenraali": "GeminiY-0301155824",
          "yksikkö": "Recruit",
          "määrä": 155
        }
      ],
      "päähyökkäys": {
        "ui_id": -1,
        "kenraali": "MG-0209193515",
        "aikaleima": "2021-10-02T10:43:58.0934396+02:00",
        "joukot": {
          "Swordsman": 10,
          "MountedMarksman": 265
        },
        "menetykset": {
          "Swordsman": {
            "min": 5,
            "max": 10
          }
        }
      }
    },
    "10851": {
      "tunniste": "9",
      "tyyppi": 1,
      "lisätiedot": "",
      "sektori": 6,
      "ankkuri": 1,
      "muoto": 0,
      "hyökkäysaallot": [],
      "päähyökkäys": {
        "ui_id": -1,
        "kenraali": "Cloaked-0331235043",
        "aikaleima": "2021-10-02T10:45:33.415221+02:00",
        "joukot": {
          "Swordsman": 210
        },
        "menetykset": {
          "Swordsman": {
            "min": 82,
            "max": 120
          }
        }
      }
    },
    "11542": {
      "tunniste": "4",
      "tyyppi": 1,
      "lisätiedot": "",
      "sektori": 4,
      "ankkuri": 1,
      "muoto": 0,
      "hyökkäysaallot": [
        {
          "kenraali": "MMA-0329140423",
          "yksikkö": "Recruit",
          "määrä": 220
        }
      ],
      "päähyökkäys": {
        "ui_id": -1,
        "kenraali": "Ghost-0408190645",
        "aikaleima": "2021-10-02T10:51:40.6552757+02:00",
        "joukot": {
          "MountedSwordsman": 70,
          "Knight": 160
        },
        "menetykset": {
          "MountedSwordsman": {
            "min": 64,
            "max": 70
          },
          "Knight": {
            "min": 30,
            "max": 46
          }
        }
      }
    },
    "13734": {
      "tunniste": "1",
      "tyyppi": 1,
      "lisätiedot": "",
      "sektori": 1,
      "ankkuri": 1,
      "muoto": 0,
      "hyökkäysaallot": [],
      "päähyökkäys": {
        "ui_id": -1,
        "kenraali": "Sylvana-0902211159",
        "aikaleima": "2021-10-02T10:41:56.6642992+02:00",
        "joukot": {
          "MountedMarksman": 195
        },
        "menetykset": {}
      }
    },
    "15481": {
      "tunniste": "5",
      "tyyppi": 1,
      "lisätiedot": "",
      "sektori": 4,
      "ankkuri": 1,
      "muoto": 0,
      "hyökkäysaallot": [],
      "päähyökkäys": {
        "ui_id": -1,
        "kenraali": "Sylvana-0902211159",
        "aikaleima": "2021-10-02T10:44:19.3981013+02:00",
        "joukot": {
          "MountedMarksman": 195
        },
        "menetykset": {}
      }
    },
    "15534": {
      "tunniste": "8",
      "tyyppi": 1,
      "lisätiedot": "",
      "sektori": 6,
      "ankkuri": 1,
      "muoto": 0,
      "hyökkäysaallot": [],
      "päähyökkäys": {
        "ui_id": -1,
        "kenraali": "Sylvana-0902211159",
        "aikaleima": "2021-10-02T10:45:11.7047603+02:00",
        "joukot": {
          "MountedMarksman": 195
        },
        "menetykset": {}
      }
    },
    "15760": {
      "tunniste": "13",
      "tyyppi": 1,
      "lisätiedot": "",
      "sektori": 9,
      "ankkuri": 1,
      "muoto": 0,
      "hyökkäysaallot": [
        {
          "kenraali": "GeminiY-0301155824",
          "yksikkö": "Recruit",
          "määrä": 155
        },
        {
          "kenraali": "Nusala-0209184310",
          "yksikkö": "Recruit",
          "määrä": 180
        },
        {
          "kenraali": "MMA-0329140423",
          "yksikkö": "Recruit",
          "määrä": 220
        }
      ],
      "päähyökkäys": {
        "ui_id": -1,
        "kenraali": "Sylvana-0902211159",
        "aikaleima": "2021-10-02T10:47:41.5353371+02:00",
        "joukot": {
          "MountedSwordsman": 30,
          "MountedMarksman": 165
        },
        "menetykset": {
          "MountedSwordsman": {
            "min": 20,
            "max": 26
          }
        }
      }
    },
    "16056": {
      "tunniste": "7",
      "tyyppi": 1,
      "lisätiedot": "",
      "sektori": 6,
      "ankkuri": 1,
      "muoto": 0,
      "hyökkäysaallot": [],
      "päähyökkäys": {
        "ui_id": -1,
        "kenraali": "Sylvana-0902211159",
        "aikaleima": "2021-10-02T10:44:53.0983047+02:00",
        "joukot": {
          "MountedMarksman": 195
        },
        "menetykset": {}
      }
    },
    "16598": {
      "tunniste": "6",
      "tyyppi": 1,
      "lisätiedot": "",
      "sektori": 5,
      "ankkuri": 1,
      "muoto": 0,
      "hyökkäysaallot": [],
      "päähyökkäys": {
        "ui_id": -1,
        "kenraali": "Ghost-0408190645",
        "aikaleima": "2021-10-02T10:44:40.5162221+02:00",
        "joukot": {
          "Swordsman": 230
        },
        "menetykset": {
          "Swordsman": {
            "min": 98,
            "max": 123
          }
        }
      }
    },
    "16795": {
      "tunniste": "2",
      "tyyppi": 1,
      "lisätiedot": "",
      "sektori": 2,
      "ankkuri": 1,
      "muoto": 0,
      "hyökkäysaallot": [],
      "päähyökkäys": {
        "ui_id": -1,
        "kenraali": "Sylvana-0331234359",
        "aikaleima": "2021-10-02T10:42:13.6588391+02:00",
        "joukot": {
          "Swordsman": 35,
          "Knight": 160
        },
        "menetykset": {
          "Swordsman": {
            "min": 9,
            "max": 19
          },
          "Knight": {
            "min": 10,
            "max": 12
          }
        }
      }
    },
    "18086": {
      "tunniste": "12",
      "tyyppi": 1,
      "lisätiedot": "",
      "sektori": 8,
      "ankkuri": 1,
      "muoto": 0,
      "hyökkäysaallot": [
        {
          "kenraali": "Nusala-0209184310",
          "yksikkö": "Recruit",
          "määrä": 1
        }
      ],
      "päähyökkäys": {
        "ui_id": -1,
        "kenraali": "MG-0209193515",
        "aikaleima": "2021-10-02T10:48:36.5866846+02:00",
        "joukot": {
          "Knight": 275
        },
        "menetykset": {
          "Knight": {
            "min": 147,
            "max": 158
          }
        }
      }
    },
    "18158": {
      "tunniste": "10",
      "tyyppi": 1,
      "lisätiedot": "",
      "sektori": 7,
      "ankkuri": 1,
      "muoto": 0,
      "hyökkäysaallot": [],
      "päähyökkäys": {
        "ui_id": -1,
        "kenraali": "MG-0209193515",
        "aikaleima": "2021-10-02T10:45:48.5820943+02:00",
        "joukot": {
          "Knight": 275
        },
        "menetykset": {
          "Knight": {
            "min": 91,
            "max": 99
          }
        }
      }
    },
    "18477": {
      "tunniste": "11",
      "tyyppi": 1,
      "lisätiedot": "",
      "sektori": 7,
      "ankkuri": 1,
      "muoto": 0,
      "hyökkäysaallot": [],
      "päähyökkäys": {
        "ui_id": -1,
        "kenraali": "Ghost-0408190645",
        "aikaleima": "2021-10-02T10:45:59.2626168+02:00",
        "joukot": {
          "Swordsman": 230
        },
        "menetykset": {
          "Swordsman": {
            "min": 122,
            "max": 151
          }
        }
      }
    }
  },
  "parhaatHyökkäykset": {},
  "parhaatHyökkäyksetMMA": {},
  "comboHyökkäykset": {},
  "merkit": [],
  "nuolet": []
}