{
  "tunniste": "shaman",
  "nimi": "Výchozí",
  "kuvake": "",
  "lisätiedot": "",
  "xpEventKerroin": 1.0,
  "vaaditutKenraalit": {},
  "vaaditutJoukot": {},
  "leirimerkinnät": {
    "10093": {
      "tunniste": "",
      "lisätiedot": "",
      "sektori": 2,
      "ankkuri": 1,
      "muoto": 0,
      "hyökkäysaallot": []
    },
    "10310": {
      "tunniste": "",
      "lisätiedot": "",
      "sektori": 3,
      "ankkuri": 1,
      "muoto": 0,
      "hyökkäysaallot": []
    },
    "10468": {
      "tunniste": "",
      "lisätiedot": "",
      "sektori": 4,
      "ankkuri": 1,
      "muoto": 0,
      "hyökkäysaallot": []
    },
    "10506": {
      "tunniste": "",
      "lisätiedot": "",
      "sektori": 4,
      "ankkuri": 1,
      "muoto": 0,
      "hyökkäysaallot": []
    },
    "10892": {
      "tunniste": "",
      "lisätiedot": "",
      "sektori": 2,
      "ankkuri": 1,
      "muoto": 0,
      "hyökkäysaallot": []
    },
    "11167": {
      "tunniste": "",
      "lisätiedot": "",
      "sektori": 3,
      "ankkuri": 1,
      "muoto": 0,
      "hyökkäysaallot": []
    },
    "11576": {
      "tunniste": "",
      "lisätiedot": "",
      "sektori": 1,
      "ankkuri": 1,
      "muoto": 0,
      "hyökkäysaallot": []
    },
    "13378": {
      "tunniste": "",
      "lisätiedot": "",
      "sektori": 3,
      "ankkuri": 1,
      "muoto": 0,
      "hyökkäysaallot": []
    },
    "15824": {
      "tunniste": "",
      "lisätiedot": "",
      "sektori": 4,
      "ankkuri": 1,
      "muoto": 0,
      "hyökkäysaallot": []
    },
    "16265": {
      "tunniste": "",
      "lisätiedot": "",
      "sektori": 4,
      "ankkuri": 1,
      "muoto": 0,
      "hyökkäysaallot": []
    },
    "16327": {
      "tunniste": "",
      "lisätiedot": "",
      "sektori": 2,
      "ankkuri": 1,
      "muoto": 0,
      "hyökkäysaallot": []
    },
    "16645": {
      "tunniste": "",
      "lisätiedot": "",
      "sektori": 1,
      "ankkuri": 1,
      "muoto": 0,
      "hyökkäysaallot": []
    },
    "16833": {
      "tunniste": "",
      "lisätiedot": "",
      "sektori": 3,
      "ankkuri": 1,
      "muoto": 0,
      "hyökkäysaallot": []
    },
    "17505": {
      "tunniste": "",
      "lisätiedot": "",
      "sektori": 3,
      "ankkuri": 1,
      "muoto": 0,
      "hyökkäysaallot": []
    },
    "18414": {
      "tunniste": "",
      "lisätiedot": "",
      "sektori": 4,
      "ankkuri": 1,
      "muoto": 0,
      "hyökkäysaallot": []
    },
    "18939": {
      "tunniste": "",
      "lisätiedot": "",
      "sektori": 1,
      "ankkuri": 1,
      "muoto": 0,
      "hyökkäysaallot": []
    },
    "19589": {
      "tunniste": "",
      "lisätiedot": "",
      "sektori": 2,
      "ankkuri": 1,
      "muoto": 0,
      "hyökkäysaallot": []
    }
  },
  "parhaatHyökkäykset": {},
  "parhaatHyökkäyksetMMA": {},
  "comboHyökkäykset": {},
  "merkit": [],
  "nuolet": []
}