{
  "tunniste": "siege",
  "nimi": "Výchozí",
  "kuvake": "",
  "lisätiedot": "",
  "xpEventKerroin": 1.0,
  "vaaditutKenraalit": {},
  "vaaditutJoukot": {},
  "leirimerkinnät": {
    "10997": {
      "tunniste": "",
      "lisätiedot": "",
      "sektori": 3,
      "ankkuri": 1,
      "muoto": 0,
      "hyökkäysaallot": []
    },
    "10998": {
      "tunniste": "",
      "lisätiedot": "",
      "sektori": 5,
      "ankkuri": 1,
      "muoto": 0,
      "hyökkäysaallot": []
    },
    "11746": {
      "tunniste": "",
      "lisätiedot": "",
      "sektori": 2,
      "ankkuri": 1,
      "muoto": 0,
      "hyökkäysaallot": []
    },
    "12014": {
      "tunniste": "",
      "lisätiedot": "",
      "sektori": 3,
      "ankkuri": 1,
      "muoto": 0,
      "hyökkäysaallot": []
    },
    "12259": {
      "tunniste": "",
      "lisätiedot": "",
      "sektori": 4,
      "ankkuri": 1,
      "muoto": 0,
      "hyökkäysaallot": []
    },
    "12386": {
      "tunniste": "",
      "lisätiedot": "",
      "sektori": 1,
      "ankkuri": 1,
      "muoto": 0,
      "hyökkäysaallot": []
    },
    "12503": {
      "tunniste": "",
      "lisätiedot": "",
      "sektori": 1,
      "ankkuri": 1,
      "muoto": 0,
      "hyökkäysaallot": []
    },
    "12576": {
      "tunniste": "",
      "lisätiedot": "",
      "sektori": 5,
      "ankkuri": 1,
      "muoto": 0,
      "hyökkäysaallot": []
    },
    "12649": {
      "tunniste": "",
      "lisätiedot": "",
      "sektori": 3,
      "ankkuri": 1,
      "muoto": 0,
      "hyökkäysaallot": []
    },
    "13589": {
      "tunniste": "",
      "lisätiedot": "",
      "sektori": 1,
      "ankkuri": 1,
      "muoto": 0,
      "hyökkäysaallot": []
    },
    "13590": {
      "tunniste": "",
      "lisätiedot": "",
      "sektori": 4,
      "ankkuri": 1,
      "muoto": 0,
      "hyökkäysaallot": []
    },
    "14050": {
      "tunniste": "",
      "lisätiedot": "",
      "sektori": 5,
      "ankkuri": 1,
      "muoto": 0,
      "hyökkäysaallot": []
    },
    "14403": {
      "tunniste": "",
      "lisätiedot": "",
      "sektori": 1,
      "ankkuri": 1,
      "muoto": 0,
      "hyökkäysaallot": []
    },
    "14588": {
      "tunniste": "",
      "lisätiedot": "",
      "sektori": 2,
      "ankkuri": 1,
      "muoto": 0,
      "hyökkäysaallot": []
    },
    "14958": {
      "tunniste": "",
      "lisätiedot": "",
      "sektori": 1,
      "ankkuri": 1,
      "muoto": 0,
      "hyökkäysaallot": []
    },
    "15205": {
      "tunniste": "",
      "lisätiedot": "",
      "sektori": 2,
      "ankkuri": 1,
      "muoto": 0,
      "hyökkäysaallot": []
    },
    "15456": {
      "tunniste": "",
      "lisätiedot": "",
      "sektori": 3,
      "ankkuri": 1,
      "muoto": 0,
      "hyökkäysaallot": []
    },
    "15707": {
      "tunniste": "",
      "lisätiedot": "",
      "sektori": 5,
      "ankkuri": 1,
      "muoto": 0,
      "hyökkäysaallot": []
    },
    "17246": {
      "tunniste": "",
      "lisätiedot": "",
      "sektori": 5,
      "ankkuri": 1,
      "muoto": 0,
      "hyökkäysaallot": []
    },
    "17460": {
      "tunniste": "",
      "lisätiedot": "",
      "sektori": 5,
      "ankkuri": 1,
      "muoto": 0,
      "hyökkäysaallot": []
    },
    "17687": {
      "tunniste": "",
      "lisätiedot": "",
      "sektori": 2,
      "ankkuri": 1,
      "muoto": 0,
      "hyökkäysaallot": []
    },
    "17981": {
      "tunniste": "",
      "lisätiedot": "",
      "sektori": 3,
      "ankkuri": 1,
      "muoto": 0,
      "hyökkäysaallot": []
    },
    "18258": {
      "tunniste": "",
      "lisätiedot": "",
      "sektori": 2,
      "ankkuri": 1,
      "muoto": 0,
      "hyökkäysaallot": []
    },
    "18389": {
      "tunniste": "",
      "lisätiedot": "",
      "sektori": 1,
      "ankkuri": 1,
      "muoto": 0,
      "hyökkäysaallot": []
    },
    "18549": {
      "tunniste": "",
      "lisätiedot": "",
      "sektori": 2,
      "ankkuri": 1,
      "muoto": 0,
      "hyökkäysaallot": []
    },
    "18838": {
      "tunniste": "",
      "lisätiedot": "",
      "sektori": 3,
      "ankkuri": 1,
      "muoto": 0,
      "hyökkäysaallot": []
    }
  },
  "parhaatHyökkäykset": {},
  "parhaatHyökkäyksetMMA": {},
  "comboHyökkäykset": {},
  "merkit": [],
  "nuolet": []
}