{
  "#author": "User (The_BEAST_r10)",
  "global.ElapsedTime": "Czas, który upłynął",
  "global.DayShort": "d",
  "global.HourShort": "h",
  "global.MinuteShort": "m",
  "global.SecondShort": "s",
  "global.Camp": "Obóz",
  "global.Camps": "Obozy",
  "global.CampRegular": "Obóz zwykły",
  "global.CampLeader": "Obóz przywódcy",
  "global.ShowAll": "Pokaż wszystko",
  "global.Sector": "Sektor",
  "global.Sectors": "Sektory",
  "global.ButtonOK": "Zatwierdź",
  "global.ColorTransparency": "Przezroczystość kolorów",
  "global.ButtonCancel": "Anuluj",
  "global.ButtonClear": "Wyczyść",
  "global.ButtonBack": "Wróć",
  "global.ButtonOpen": "Otwórz",
  "global.ButtonClose": "Zamknij",
  "global.ButtonEdit": "Edytuj",
  "global.ButtonCopy": "Kopiuj",
  "global.ButtonDelete": "Usuń",
  "global.ButtonVerify": "Zweryfikować?",
  "global.FileExport": "Zapisz jako...",
  "global.ButtonFullscreen": "Widok pełnoekranowy",
  "global.ButtonRemove": "Usuń",
  "global.ButtonAddCustom": "Dodaj niestandardowe",
  "global.ButtonAdd": "Dodaj nowe",
  "global.ButtonConfirm": "Potwierdź",
  "global.ButtonSelectAll": "Zaznacz wszystko",
  "global.ButtonUnselectAll": "Odznacz wszystko",
  "global.ButtonResetNames": "Zresetuj nazwy",
  "global.ButtonMoveUp": "Przesuń wyżej",
  "global.ButtonMoveDown": "Przesuń niżej",
  "global.ButtonHide": "Ukryj",
  "global.ButtonFavorite": "Ulubione",
  "global.ButtonSwitchTroops": "Przełącz wojsko",
  "global.ButtonClearTroops": "Wyczyść wojsko",
  "global.ButtonTools": "Narzędzia",
  "global.ButtonSelectCamp": "Wybierz obóz",
  "global.Map": "Mapa",
  "global.AllMaps": "Wszystkie mapy",
  "global.Text": "Tekst",
  "global.Name": "Nazwa",
  "global.Notes": "Uwagi",
  "global.Type": "Typ ataku",
  "global.Icon": "Ikona",
  "global.None": "Żaden",
  "global.Save": "Zapisz",
  "global.Select": "Wybierz",
  "global.General": "Generał",
  "global.Generals": "Generałowie",
  "global.Default": "Domyślne",
  "global.Undefined": "Nieokreślony",
  "global.Options": "Opcje",
  "global.AdvOptions": "Opcje zaawansowane",
  "global.Settings": "Ustawienia",
  "global.Hotkey": "Klawisz skrótu",
  "global.Loading": "Ładowanie...",
  "global.Search": "Szukaj",
  "global.SelectUnitTypes": "Wybierz typy jednostek",
  "global.ResetDefaults": "Przywróć domyślne",
  "global.RefreshView": "Odśwież widok",
  "global.ZoomViewTooltip": "(Powiększanie Ctrl + kólko myszy)",
  "global.NumGenerals": "Liczba generałów",
  "attackinfo.Title": "Atak",
  "attackinfo.Player": "Gracz",
  "attackinfo.Everyone": "Każdy",
  "attackinfo.Enemy": "Wróg",
  "attackinfo.TypeUndefined": "Nieokreślony",
  "attackinfo.TypeAttack": "Atak",
  "attackinfo.TypeBlock": "Blok",
  "attackinfo.TypeIgnore": "Ignorowany",
  "attackinfo.TypeChainAttack": "Łańcuch",
  "attackinfo.TypeOptional": "Opcjonalnie (Dodatkowe XP)",
  "attackinfo.Round": "Runda",
  "attackinfo.UnitDies": "zginął",
  "attackinfo.Phase": "Faza",
  "attackinfo.Block": "Blok",
  "attackinfo.CombatRounds": "Rundy walki",
  "attackinfo.WinChance": "Szansa na wygraną",
  "attackinfo.BattleSnapshot": "Migawka pojedynczej bitwy podczas symulacji",
  "attackinfo.AvgPlayerLosses": "Średnie straty gracza",
  "attackinfo.AvgEnemyLosses": "Średnie straty wroga",
  "attackinfo.PlayerTroops": "Oddziały gracza",
  "attackinfo.EnemyTroops": "Pokaż wojska wroga",
  "attackinfo.EnemyDefeated": "Wróg pokonany",
  "attackinfo.NoLosses": "Bez strat",
  "attackinfo.UnableToWin": "Nie można wygrać",
  "attackinfo.BarracksTime": "Czas w koszarach",
  "attackinfo.UnitLossesValue": "Wartość straty jednostki",
  "attackinfo.UnitRecovery": "Jednostki odzyskane dzięki umiejętnościom i cechom",
  "camptip.Assassin": "Obóz może zostać pokonany za pomocą {ASSASSIN}",
  "camptip.BallistaAssassin": "Obóz może zostać pokonany za pomocą {BALLISTA} i {ASSASSIN}",
  "camptip.ArrowsChance": "Obóz może zostać pokonany za pomocą {ARROWS}",
  "camptip.Arrows": "Obóz może zostać pokonany za pomocą {ARROWS}",
  "camptip.NoLossesChance": "Obóz nie ma jednostek {FIRSTSTRIKE}. Istnieje szansa na zero strat głównego atakującego",
  "unitinfo.TypeBoss": "Szef",
  "unitinfo.TypeWeakest": "Najsłabszy cel",
  "unitinfo.TypeOffensive": "Ofensywa",
  "unitinfo.TypeSwift": "Szybki",
  "unitinfo.TypeHeavy": "Ciężki",
  "unitinfo.TypeDefensive": "Obronny",
  "apperror.Title": "Błąd aplikacji",
  "apperror.QuitApp": "Zamknij aplikację",
  "apperror.CopyClipboard": "Skopiuj komunikat o błędzie",
  "error.Title": "Błąd",
  "error.SelectPlayer": "Wybierz gracza",
  "error.SelectGeneral": "Wybierz generała!",
  "error.SelectOneGeneral": "Wybierz przynajmniej jednego generała!",
  "error.SelectTroops": "Wybierz wojsko!",
  "error.SelectEnemyTroops": "Wybierz oddziały wroga!",
  "error.SelectCampOrEnemyTroops": "Wybierz obóz lub oddziały wroga!",
  "error.SelectAtleast2Camps": "Wybierz co najmniej dwa obozy!",
  "error.TooManyTroops": "Za dużo jednostek!",
  "error.EnterName": "Wpisz nazwę!",
  "error.EnterValue": "Wpisz wartość!",
  "error.SelectType": "Wybierz typ ataku!",
  "error.SelectRow": "Wybierz jakiś profil!",
  "error.MissingGeneral": "Brakuję generała",
  "error.MissingData": "Nie znaleziono folderu plików (tiedostot)",
  "error.UnableToSave": "Nie można zapisać plików w lokalizacji programu",
  "error.GeneralWithNoTroops": "{GEN} został wybrany, ale nie ustawiono żadnych ustawień oddziałów!",
  "error.GeneralWithZeroLoss": "{GEN} został wybrany, ale wszystkie maksymalne straty są zdefiniowane jako zero",
  "error.CantDeleteLastAttackGroup": "Nie można usunąć ostatniej grupy ataków, ponieważ przynajmniej jedna musi istnieć!",
  "warning.Title": "Ostrzeżenie",
  "warning.GeneralAlreadyAdded": "Ten generał został już dodany!",
  "warning.SelectOneMap": "Co najmniej jedna mapa musi być widoczna!",
  "warning.ResetGeneralNames": "Spowoduje to zresetowanie wszystkich ogólnych nazw do ich oryginalnych nazw. Kontynuować?",
  "warning.NoGenerals": "Nie wybrano generałów. Czy na pewno chcesz zamknąć okno?",
  "warning.WeatherChange": "Należy pamiętać, że zmiana pogody w istniejącej konfiguracji mapy może unieważnić wszystkie zapisane ataki.",
  "warning.WeatherMultiple": "Włączono wiele warunków pogodowych. Jesteś pewien, że chcesz kontynuować?",
  "warning.LastMapSetup": "Nie można usunąć. Zawsze musi być przynajmniej jedna konfiguracja mapy!",
  "warning.SelectOneTroopType": "Należy wybrać co najmniej jeden typ jednostki!",
  "warning.DeleteSelectedRow": "Czy na pewno chcesz usunąć wybrany wiersz?",
  "warning.RestartMayBeRequired": "Uwaga! zmiany mogą wymagać aktualizacji niektórych widoków lub ponownego uruchomienia aplikacji",
  "warning.UnitValuesDisabled": "Uwaga! użycie tej wartości jednostki nie jest włączone w ustawieniach",
  "warning.UseDefinedSettings": "Czy na pewno chcesz kontynuować z wybranymi ustawieniami?",
  "warning.RestartRequired": "Zmiany wymagają ponownego uruchomienia aplikacji. Zrestartować teraz?",
  "warning.MCCDebuffMix": "Nie zaleca się symulowania map zawierających premie wzmacniające lub premie zmniejszające, ponieważ mogą one być aktywne w różnych momentach i zmieniać wyniki. Jesteś pewien, że chcesz kontynuować?",
  "warning.GeneralUnitCombinations": "{GEN} został wybrany z więcej niż 4 rodzajami oddziałów, co może skutkować ogromną ilością kombinacji, spróbuj zredukować wojsko do maksymalnie 4 oddziałów co znacznie zmniejszy czas symulacji. Jesteś pewien, że chcesz kontynuować?",
  "warning.ClearGenAutoSaveResults": "Spowoduje to usunięcie wszystkich automatycznie zapisanych wyników dla {GEN} ze wszystkich obozów. Jesteś pewien, że chcesz kontynuować?",
  "warning.DeleteAttackGroup": "Czy na pewno chcesz usunąć wybraną grupę ataków?",
  "warning.DeleteGeneralFromAttackGroup": "Czy na pewno chcesz usunąć {GEN} z grupy ataków?",
  "warning.GeneralEditWinChance": "Szansa na zwycięstwo z tymi oddziałami jest ryzykowne. Jesteś pewien, że chcesz kontynuować?",
  "warning.NoRisiSelected": "Nie wybrano wariantu {RISI}. Jesteś pewien, że chcesz kontynuować?",
  "message.AddGenerals": "Dodaj swoich generałów z umiejętnościami, aby móc ich używać w różnych widokach symulacji",
  "message.SelectCamp": "Wybierz obóz",
  "message.NoWeather": "Brak warunków pogodowych",
  "message.UseUnitTypeInWaves": "Spróbuj tego typu jednostki w falach ataku",
  "message.NoGeneralsToAdd": "Brak generałów do dodania",
  "message.ImageExportedOpenNow": "Obraz wyeksportowany. Czy chcesz go teraz otworzyć?",
  "attackgroup.Title": "Grupa ataku",
  "attackgroup.MakeDefault": "Ustawjako domyślną grupę ataków",
  "attackgroup.Default": "Domyślna grupa ataków",
  "attackgroup.Manage": "Zarządzaj grupami ataków",
  "mapsetup.Title": "Konfiguracja mapy",
  "export.ColorBorders": "Kolor ramki",
  "export.ColorBackground1": "Kolor tła (początek)",
  "export.ColorBackground2": "Kolor tła (koniec)",
  "export.TextNormal": "Kolor tekstu podstawowego",
  "export.TextGreen": "Kolor bez strat",
  "export.TextRed": "Kolor strat",
  "export.RandomTheme": "Wygeneruj losowy motyw",
  "export.ImageList": "Lista obrazów",
  "export.CampTypes": "Lista typów obozów",
  "export.HideTotalLosses": "Ukryj całkowite straty",
  "export.HideTotalAttacks": "Ukryj wyliczony atak",
  "export.AttackersInImages": "Pokaż atakujących na obrazach mapy",
  "minimap.HotkeySetCompleted": "Shift+Obóz - Obóz pokonany",
  "minimap.HotkeySetIgnored": "Ctrl+Obóz - Obóz ignorowany",
  "minimap.HotkeySimulate": "Kliknięcie prawym przyciskiem myszy na obozie -  Symulacja wybranego obozu",
  "mapsetuptools.Title": "Narzędzia do konfiguracji mapy",
  "mapsetuptools.CampNames": "Nazwy obozów",
  "mapsetuptools.Autoname": "Automatycznie nazywaij wszystkie obozy za pomocą numeru sektora i losowego alfabetu",
  "mapsetuptools.AutonameNumber": "Automatycznie nazwywaij wszystkie obozy za pomocą numeru sektora i liczb losowych",
  "mapsetuptools.CopyGuide": "Skopiuj z innego profilu",
  "mapsetuptools.DoNothing": "Nic nie rób",
  "mapsetuptools.ClearNames": "Usuń wszystkie nazwy obozów",
  "mapsetuptools.DefaultNames": "Użyj domyślnych nazw obozów",
  "mapsetuptools.CampTypes": "Rodzaje obozów",
  "mapsetuptools.SetTypeSelected": "Ustaw wszystko na wybrany typ",
  "mapsetuptools.Attacks": "Ataki",
  "mapsetuptools.ClearWavesAndMain": "Usuń wszystkie ataki z obozów",
  "mapsetuptools.ClearAutoSavedAttacks": "Wyczyść wszystko automatycznie zapisując najlepsze ataki z tej konfiguracji mapy",
  "mapsetups.Title": "Ustawienia mapy",
  "unitvalues.Title": "Wartości jednostek",
  "localization.Title": "Edytuj tłumaczenie aplikacji",
  "localization.Key": "Klawisz",
  "localization.TypeApp": "App",
  "localization.TypeGame": "Gra",
  "localization.Original": "Oryginał (język angielski i/lub aktywny element gry)",
  "localization.CopyOriginal": "Skopiuj oryginał",
  "localization.User": "Określony przez użytkownika",
  "localization.UserEmpty": "Pokaż tylko puste linie",
  "localization.SelectFile": "Wybierz plik lokalizacji/dostosowywania",
  "localization.CancelChanges": "Czy na pewno chcesz zamknąć okno bez zapisywania?",
  "localization.OverwriteOriginal": "Zamierzasz zapisać zmiany w plikach tłumaczeń aplikacji, ale wszystkie zmiany zostaną utracone, jeśli aplikacja zostanie zaktualizowana. Jesteś pewien, że chcesz kontynuować?",
  "taboverview.Title": "Przegląd mapy",
  "taboverview.View": "Etykiety mapy",
  "tabsimcamp.Title": "Symulacja obozu",
  "tabsimcamp.AttackWaves": "Fala ataku",
  "tabsimcamp.MainAttack": "Główny atak",
  "tabsimcamp.ViewAttackOthrGuides": "Zobacz atak w innych poradnikach",
  "tabsimmap.Title": "Symulacja mapy",
  "tabsimmap.SetAttackToEmpty": "Ustaw najlepszy wynik ataku jako główny atak tylko na obozy bez zapisanego głównego ataku",
  "tabsimmap.SetAttackReplace": "Ustaw najlepszy wynik ataku jako główny atak we wszystkich obozach i zastąp wszystkie istniejące główne ataki",
  "tabsimmap.SetAttackNone": "Nie ustawiaj głównych napastników",
  "tabsimmap.SkipBlockedIgnored": "Pomiń wszystkie obozy oznaczone jako zablokowane lub zignorowane",
  "tabsimmap.SkipMainAttack": "Pomiń wszystkie obozy, które mają już główny zestaw ataków",
  "tabsimmap.SkipSimulatedGenerals": "Nie symuluj generała w obozie, który już wcześniej zapisał wyniki dla określonego generała",
  "tabsimmap.NoUnitMultiplier": "Nie używaj mnożnika wartości generalnych jednostek w sortowaniu wyników (przy określaniu najlepszych ataków, pokazywaniu podpowiedzi)",
  "tabsimmap.ToolsResetAttacksWithBest": "Zresetuj główne ataki, korzystając z zapisanych najlepszych ataków i bieżących ustawień (bez symulacji)",
  "tabsimmap.ToolsClearAll": "Wyczyść wszystkie automatycznie zapisane ataki",
  "tabsimmap.CampResim": "Resymuluj ten obóz",
  "tabsimmap.CampClear": "Wyczyść zapisane ataki z tego obozu",
  "tabsimmap.GeneralStats": "Ogólne statystyki",
  "tabsimmap.GeneralStats1st": "Pierwsze miejsce",
  "tabsimmap.GeneralStats2nd": "Drugie miejsce",
  "tabsimmap.GeneralStats3rd": "Trzecie miejsce",
  "tabsimmap.GeneralStatsOther": "Inne",
  "tabsimmap.GeneralStatsWins": "Wygranych",
  "tabsimmap.GeneralStatsWin%": "Wygrana%",
  "tabsimmap.GeneralStatsAvgLoss": "Średnie straty <br> wartość",
  "tabsimmap.GeneralStatsScore": "Wynik",
  "tabsimchain.Title": "Symulacja łańcuchów",
  "tabsimchain.SelectInfo": "Kliknij lewym przyciskiem myszy, zaznacz/odznacz obozy. Kliknij prawym przyciskiem myszy, odznaczyć wszystkie obozy.",
  "tabsimchain.DefeatedInCamp": "Pokonany w obozie",
  "tabsimchain.SetAttacksAsMain": "Ustaw ataki jako główne ataki wybranych obozów",
  "tabsimchain.ResetCampValues": "Zresetuj wartości do ustawień domyślnych obozu",
  "tabsimscustom.Title": "Symulacja niestandardowa",
  "tabsimscustom.CombatLog": "Wynik symulacji",
  "tabsimscustom.NoDetaillog": "Nie pokazuj indywidualnych walk",
  "tabcomparison.Title": "Porównywanie profili",
  "tabcomparison.ShowTotalBestFail": "Pokaż całkowitą liczbę najlepszych i najgorszych ataków",
  "tabcomparison.ShowGenerals": "Pokaż całkowitą liczbę ogólnych ataków",
  "tabcomparison.ShowTotalLosses": "Pokaż łączne straty jednostek",
  "tabcomparison.ShowTotalLossesValue": "Pokaż całkowitą wartość strat jednostek",
  "tabcomparison.SelectMapSetups": "Wybierz profile do porównania",
  "tabmarkers.Title": "Znaczniki",
  "tabmarkers.Info": "Kliknij mapę prawym przyciskiem myszy, aby dodać znaczniki. Kliknij klawisz strzałki lub myszy aby przemieścić wybrany znacznik. Strzałki znaczników można dodawać z/do obozów i znaczników.",
  "tabmarkers.MapMarkerAdd": "Dodaj znacznik",
  "tabmarkers.ArrowsTitle": "Strzałki",
  "tabmarkers.LabelPosition": "Pozycja etykiety",
  "tabmarkers.Shape": "Kształt",
  "tabmarkers.InvisibleMarker": "Niewidoczny znacznik",
  "general.ColorTag": "Kolor znacznika",
  "general.ColorTagDesc": "Znacznik koloru może być użyty do szybkiego odróżnienia generałów",
  "general.SimulationHotkey": "Skrót klawisza symulacji",
  "general.SimulationHotkeyTooltip": "Skrót klawisza do szybkiej symulacji tego generała",
  "general.UnitValue": "Mnożnik wartości jednostek",
  "general.UnitValueDesc": "Może to posłużyć do nadania priorytetów generałom nad innymi w wynikach.\nNa przykład Generał Mikołajowa zawsze robi + 100% XP, więc mogłaby mieć mnożnik 0,75, aby wypozycjonować ją nieco wyżej, nawet przy wyższych stratach.",
  "general.Abbreviation": "Skrót",
  "general.ResetSkills": "Zresetuj umiejętności",
  "general.Simulate": "Kliknij, aby zasymulować tego generała",
  "maplist.Title": "Lista map",
  "maplist.HideFavorite": "Opcje",
  "maplist.HideAll": "Ukryj wszystkie mapy",
  "maplist.UnhideAll": "Pokaż wszystkie mapy",
  "maplist.FavoriteAll": "Zaznacz wszystko jako ulubione",
  "maplist.UnfavoriteAll": "Odznacz wszystkie ulubione",
  "tabComboSim.Title": "Symulacja Banzai",
  "tabComboSim.SetAttack": "Ustaw zwycięskie ataki jako główne",
  "mapinfo.Title": "Informacje o mapie",
  "mapinfo.SuggestTroops": "Zaproponuj minimalne oddziały",
  "mapsummary.Title": "Opcje dodatkowe",
  "mapsummary.MapNotes": "Notatki na mapie",
  "mapsummary.NoCampNames": "Brak przypisanych nazw obozów",
  "mapsummary.AutoFix": "Napraw automatycznie",
  "mapsummary.EditMapInfo": "Edytuj informacje o mapie/wojsku",
  "mapsummary.VerifyMainAttacks": "Zweryfikuj ataki za pomocą ponownych {NUMBER} symulacji",
  "mapsummary.ExportImage": "Pokaż jako poradnik",
  "mapsummary.ExportSetupName": "Pokaż nazwę profilu mapy",
  "mapsummary.ExportBarracksTime": "Pokaż czas rekrutacji w koszarach",
  "mapsummary.ExportTheme": "Motyw",
  "mapsummary.ExportSingleImage": "Wyświetl jako jeden obraz",
  "mapsummary.AutoScroll": "Automatycznie przewiń do wybranego obozu",
  "mapsummary.UseFirstAid": "Umiejętność 'Pierwsza Pomoc'",
  "mapsummary.RequiredGenerals": "Wymagani generałowie",
  "mapsummary.RequiredTroops": "Potrzebne oddziały",
  "mapsummary.SuggestedMinTroops": "Sugerowane minimalne oddziały",
  "mapsummary.MainAttackers": "Potrzebni Generałowie",
  "mapsummary.NormalUnits": "Jednostki zwykłe",
  "mapsummary.AttackBuffs": "Wzmocnienie ataku",
  "mapsummary.EliteUnits": "Jednostki elitarne",
  "mapsummary.BothUnits": "Obie jednostki",
  "mapsummary.Attacks": "Ataki",
  "mapsummary.BestAttacks": "Najlepsze ataki",
  "mapsummary.BestAttacksShared": "Udostępnione najlepsze ataki",
  "mapsummary.FailAttacks": "Nieudane ataki",
  "mapsummary.PlayerLosses": "Straty wojska",
  "mapsummary.AverageLossValue": "Straty średnie",
  "mapsummary.BarracksRecoveryTime": "Czas regeneracji w koszarach dzięki premiom",
  "mapsummary.AverageBarracksRecoveryTime": "Średni czas regeneracji w koszarach dzięki premiom",
  "mapsummary.XPEstimate": "Ocena XP (fale ataku zmniejszają ją)",
  "mapsummary.XPFromSkipped": "XP pominięte/z zablokowanych obozów",
  "mapsummary.XP": "XP",
  "mapsummary.Efficiency": "Wydajność, wartość strat XP/jednostek",
  "sim.AddSelectAttackers": "Dodaj i wybierz atakujących",
  "sim.AttackUnit": "Jednostka atakująca",
  "sim.AttackUnits": "Jednostki ataku",
  "sim.ClickSetSector": "Kliknij obóz, aby ustawić jego numer sektora",
  "sim.AttackUnitsTooltip": "Jednostki, które zostaną użyte do znalezienia kombinacji ataku, która pokonuje obóz, lub typy jednostek, które zostaną użyte w falach ataku",
  "sim.MaxLosses": "Max strat",
  "sim.SimulateAttackWaves": "Symuluj główne ataki z pomocą automatycznych fal",
  "sim.AttackWaveOnDefeat": "1) Jeśli generał zostanie pokonany, spróbuj znaleźć falę ataku, która pomoże mu wygrać",
  "sim.AttackWaveOnWin": "2) Jeśli generał wygra, spróbuj znaleźć falę ataku, która zmniejszy główne straty do zera",
  "sim.AttackWaveOnWinNoFirstStrike": "2.1) Użyj tylko wtedy, gdy obóz wroga nie ma jednostek {FIRSTSTRIKE}",
  "sim.AttackWaveOnWinEliteUnits": "2.2) Symuluj tylko wtedy, gdy używasz jednostek elitarnych",
  "sim.AttackWaveSwiftOnFirstStrike": "3) Użyj jednostek {CAV/KNG} tylko wtedy, gdy obóz wroga ma jednostki {FIRSTSTRIKE}",
  "sim.MaxWavesPerCamp": "Maksymalna liczba fal na obóz",
  "sim.MaxAttackPerCamp": "Maksymalna liczba ataków na obóz",
  "sim.MainAttacks": "Główny atak",
  "sim.FixedAttacks": "Predefiniowany atak",
  "sim.SimulateOnlySelected": "Symuluj tylko zaznacznych poniżej generałów",
  "sim.SimulateOnlyMainAttacker": "Symuluj tylko obóz głównego aktualnego napastnika",
  "sim.SimulateOnlySavedAttackers": "Symuluj tylko najlepszych zapisanych napastników w obozie",
  "sim.SpecialFeatures": "Funkcje eksperymentalne. Używaj tylko wtedy, gdy wiesz, że ich potrzebujesz:",
  "sim.RunOptimization": "Uruchom fazę optymalizacji do wyników, gdy wartość stopnia symulacji wynosi 5+",
  "sim.RunOptimizationTooltip": "W PRZYPADKU SPECJALNEGO WYKORZYSTANIA, WOLNA SYMULACJA\n\nPo włączeniu tej opcji zostanie przeprowadzona dodatkowa faza optymalizacji wstępnych wyników symulacji.\nBędzie symulować w obu kierunkach od pierwotnego wyniku, dodając i usuwając jedną jednostkę na typ jednostki\ndopóki nie zostanie trafiony następny stopień.\n\nNa przykład z wartością stopnia 5 spróbuje wykonać atak „A150, B80” jako kombinację „A145-155, B75-85”",
  "sim.SimulateBelowCapacity": "Symuluj kombinacje jednostek poniżej ogólnej pojemności",
  "sim.SimulateBelowCapacityTooltip": "W PRZYPADKU SPECJALNEGO WYKORZYSTANIA, WOLNA SYMULACJA\n\nMoże to być na przykład wykorzystane do przygód na niskim poziomie lub gdy gracz ma ograniczoną liczbę dostępnego wojska",
  "sim.TryXbowCannons": "A) Automatycznie spróbuj symulację z {XBOW} i {CANNON}",
  "sim.NoCavOnFirstStrikeFlank": "B) Nie używaj {CAV}, gdy wróg ma {FIRSTSTRIKE} i {FLANK}",
  "sim.UseEliteReplacement": "C) Zamień jeden {RECRUIT} na {ELITE} w wynikach jako dodatkową ochronę słabszych jednostek",
  "sim.UseEliteReplacementTooltip": "{ELITE} będzie używany tylko wtedy, gdy atak gracza obejmuje słabsze jednostki, a wróg nie ma jednostek {FIRSTSTRIKE} i {FLANK}",
  "sim.TryBothSwordsman": "A) Automatycznie spróbuj {S} i {MS} na symulację",
  "sim.TryAmBsg": "B) Automatycznie spróbuj {AM} i {BSG} na symulację",
  "sim.KnightOnFirstStike": "C) Używaj tylko jednostek {KNIGHT}, gdy wróg ma jednostki {FIRSTSTRIKE}",
  "sim.NoMarksmanOnFlank": "D) Nie używaj {M}, {AM} lub {MM}, gdy wróg ma {FIRSTSTRIKE} i {FLANK}",
  "sim.NoBesiegerOnFlank": "E) Nie używaj {BSG}, gdy wróg ma {FIRSTSTRIKE} i {FLANK}",
  "sim.NotRecommendedForGen": "Nie zaleca się korzystania z tej funkcji w '{GEN}: {TRAIT}'!",
  "sim.GenMenuSimulate": "Symuluj tylko z tym generałem",
  "sim.GenMenuSelect": "Wybierz tylko tego generała",
  "sim.GenMenuCopy": "Skopiuj maksymalne jednostki, straty i ustawienia",
  "sim.GenMenuPaste": "Wklej maksymalne jednostki, straty i ustawienia",
  "sim.GenMenuSetMain": "Ustaw tego generała jako głównego atakującego w każdym obozie, gdzie dostępne są zapisane wyniki",
  "sim.GenMenuClearAutoSaved": "Usuń wszystkie automatycznie zapisane wyniki tego generała ze wszystkich obozów",
  "sim.GenMenuRemoveFromGroup": "Usuń generała z grupy ataku",
  "sim.ManageAttackGroups": "Zarządzaj grupami ataków poniżej, zanim zaczniesz symulować",
  "sim.MainMenu": "Opcje, narzędzia i pomoc",
  "sim.MainMenuLanguageElements": "Język elementów gry",
  "sim.MainMenuLanguageApp": "Język aplikacji",
  "sim.MainMenuFeedback": "Opinie (forum serwera testowego)",
  "sim.MainMenuChangelog": "Lista zmian (link do dysku Google)",
  "sim.MainMenuAbout": "O programie",
  "sim.ManageMaps": "Zarządzaj listą map",
  "sim.ActiveMapSetup": "Aktywne ustawienie mapy (nazwy, typy, notatki i oddziały)",
  "sim.ManageMapSetups": "Tworzenie profili i warunków pogodowych",
  "sim.GuideTools": "Narzędzia do konfiguracji mapy",
  "sim.ButtonSimulate": "Start",
  "sim.ButtonSimulateNow": "Symuluj teraz",
  "sim.ButtonCancelSim": "Anuluj",
  "sim.ButtonSimulateTooltip": "Rozpocznij symulację (F9)",
  "sim.Simulations": "Symulacje",
  "sim.SimulationsTooltip": "Liczba powtórzeń symulacji, które należy wykonać dla kombinacji jednostek atakujących.\nWyższe wartości dają dokładniejsze wyniki, ale zajmują więcej czasu, podczas gdy mniejsze wartości działają odwrotnie.\n\nWartość 200-500 jest wystarczająca dla większości przypadków z bardzo małą szansą na nieoczekiwane wyniki.\nWartości powyżej 1000 są bardzo wiarygodne.",
  "sim.SimSteps": "Stopnie",
  "sim.SimStepsTooltip": "Liczba jednostek do dodania podczas próby różnych kombinacji jednostek na symulację.\nNa przykład wartość 5 oznacza, że atak jest wykonywany z jednostką A jako 5, 10, 15, 20... jednostek \nnastępnie towarzyszy mu jednostka B z 0, 5, 10, 15 ... ewentualnie po której następują jednostki C, D E...\n\n- Wartość 5 daje najlepsze wyniki pod względem szybkości i dokładności\n- Wartości od 10 do 20 są zalecane dla starszych, wolniejszych komputerów\n- Wartości 1 i 2 są zalecane tylko dla szybkich komputerów\n lub do ostatecznego procesu optymalizacji określonego generała",
  "sim.OpenPlaythrough": "Otwórz jako mini przewodnik...",
  "sim.TotalNumber": "Całkowita liczba",
  "sim.CheckboxCampCompleted": "Obóz pokonany",
  "sim.AutomaticallySavedAttack": "Atak zapisany automatycznie",
  "sim.AutomaticallySavedBestAttacks": "Pokaż wszystkie wysymulowane ataki innych generałów",
  "sim.SimulateMapWith1RMMA": "Zapisz dodatkową listę ataków za pomocą 1{REC} {MMA}",
  "sim.MenuSetMainAttack": "Ustaw jako główny atak dla tego obozu",
  "sim.MenuCopyAttackClipboard": "Skopiuj do schowka",
  "sim.MenuCopyAttack": "Skopiuj atak do niestandardowej symulacji",
  "sim.MenuCopyEnemies": "Kopiuj wojsko wroga do niestandardowej symulacji",
  "sim.MenuRunAttack": "Uruchom atak w zakładce niestandardowej symulacji",
  "sim.MenuSimulateTroopsInCampTab": "Symuluj dla wybranego obozu w zakładce „Najlepszy atakujący”",
  "sim.MenuDisableTroopCheck": "Wyłącz sprawdzanie limitu wojsk",
  "sim.MenuResetCompleted": "Zresetuj ukończony status we wszystkich obozach",
  "sim.MenuSectorColors": "Użyj kolorowych etykiet sektorowych",
  "sim.MenuSectorActiveSectorLabels": "Pokaż tylko aktywne etykiety sektorów",
  "sim.MenuMapLabelType": "Typy etykiet mapy",
  "sim.MenuMapLabelTypeGeneral": "Pokaż tylko nazwy generałów",
  "sim.MenuMapLabelTypeName": "Pokaż tylko numery obozów",
  "sim.MenuMapLabelTypeBoth": "Pokaż obie etykiety",
  "sim.NotSimulated": "Nie symulowane",
  "playthrough.MainAttackVerified": "Wynik ataku został teraz zweryfikowany za pomocą resymulacji {NUMBER}",
  "playthrough.ResetSize": "Przywróć domyślny rozmiar okna",
  "playthrough.MinimapLocation": "Zmień lokalizację minimapy",
  "playthrough.MinimapLocationTop": "Minimapa na górze",
  "playthrough.MinimapLocationBottom": "Minimapa na dole",
  "playthrough.MinimapLocationLeft": "Minimapa po lewej stronie",
  "playthrough.MinimapLocationRight": "Minimapa po prawej stronie",
  "playthrough.OpenAttack": "Otwórz jako mini przewodnik...",
  "simresults.Title": "Wynik symulacji",
  "simresults.Preparing": "Przygotowanie...",
  "simresults.Optimizing": "Optymalizacja...",
  "simresults.UnitCombination": "Kombinacja jednostek",
  "simresults.GeneralDefeatedWaves": "Pokonany, próbuję z falami ataku...",
  "simresults.GeneralVictoryWaves": "Zwycięstwo, próbuję fal na zero strat...",
  "simresults.CheckboxKeepTop": "Zachowaj to okno na wierzchu",
  "settings.Title": "Ustawienia aplikacji",
  "settings.Subtitle": "Uwaga: niektóre ustawienia mogą wymagać zrestartowania aplikacji, aby zmiany odniosły skutek",
  "settings.Barracks": "Koszary (ustawienia wspólne)",
  "settings.BarracksNormal": "Koszary (zwykłe)",
  "settings.BarracksElite": "Koszary (elitarne)",
  "settings.BarracksLevel": "Poziom koszar",
  "settings.BarracksLevelDesc": "Poziom kosztów wpłynie na wyświetlane czasu",
  "settings.BarracksBuff": "Szybkość premii w koszarach %",
  "settings.BarracksBuffDesc": "Szybkość premii w koszarach wpływa na wyświetlany czas. Przykład Pan Myers (+ 300%) + Podręcznik rekrutacji (200%) = 500",
  "settings.ShowUnitEfficiency": "Pokaż wydajność jednostki",
  "settings.ShowUnitEfficiencyDesc": "Pokaż wartości wydajności jednostki w podsumowaniu mapy",
  "settings.EfficiencyWarning": "Normalny limit ostrzegawczy wydajności jednostki",
  "settings.EfficiencyWarningDesc": "Pokaż normalne wartości sprawności jednostki poniżej tej wartości w kolorze czerwonym",
  "settings.EfficiencyWarningElite": "Granica ostrzegawcza wydajności jednostki elitarnej",
  "settings.EfficiencyWarningEliteDesc": "Pokaż wartości wydajności elitarnej jednostki poniżej tej wartości w kolorze czerwonym",
  "settings.NeverCounOneUnitAttackLoss": "Nigdy nie licz jako jednego (1)  ataku jednostki jako straty",
  "settings.NeverCounOneUnitAttackLossDesc": "Nigdy nie liczyć jednego (1) ataku jednostki jako straty, aby nie były pokazywane w całkowitych stratach",
  "settings.SummaryResimulations": "Liczba ponownych symulacji do przeprowadzenia ataków",
  "settings.SummaryResimulationsDesc": "Liczba ponownych symulacji do wykonania w celu weryfikacji ataków. Wartość musi wynosić od 500 do 30000.",
  "settings.Playthrough": "Okno odtwarzania",
  "settings.PlaythroughActivityReminder": "***Przypomnienia o minutach",
  "settings.PlaythroughActivityReminderDesc": "***Jeśli okno odtwarzania jest nieaktywne przez określone minuty, zacznie migać na pasku zadań, aby przypomnieć o kontynuowaniu. Wartość 0 oznacza, że funkcja jest wyłączona.",
  "settings.PlaythroughAutoscale": "Automatyczne skalowanie ikon i etykiet obozu minimapy według rozmiaru mapy",
  "settings.PlaythroughAutoscaleDesc": "Automatyczne skalowanie ikon i etykiet obozu minimapy według rozmiaru mapy",
  "settings.PlaythroughCampLabel": "Czcionka etykiety obozu",
  "settings.PlaythroughResimulations": "Liczba symulacji do wykonania w celu sprawdzenia głównego ataku",
  "settings.PlaythroughResimulationsDesc": "Liczba symulacji do wykonania w celu sprawdzenia głównego ataku. Wartość musi być pomiędzy 100-20000.",
  "settings.Simulation": "Symulacja",
  "settings.SwordsmanMultiplier": "Mnożnik strat Zbrojnego",
  "settings.SwordsmanMultiplierDesc": "Po włączeniu automatycznej zmiany pomiędzy Zbrojnym a Konnym Zbrojnym, maksymalne straty Zbrojnego będą stanowić maksymalne straty Konnego Zbrojnego pomnożone przez tę wartość. Wartość musi zawierać się między 1-2.\n\nPrzykład,  jeśli twoje straty Zbrojnego są ustawione na 100, a mnożnik wynosi 1,5, maksymalne straty dla Konnego Zbrojnego wynoszą 150",
  "settings.ResultsGenerals": "Liczba najlepszych ataków (ogólnie)",
  "settings.ResultsGeneralsDesc": "Liczba najlepszych wyników ataku, które mają być pokazane na ogół. Wartość musi zawierać się między 1-20",
  "settings.ResultsTotal": "Liczba najlepszych ataków (podsumowanie)",
  "settings.ResultsTotalDesc": "Liczba pomyślnych wyników ataku, które zostaną wyświetlone w końcowym podsumowaniu wszystkich ataków. Wartość musi być między 5-30",
  "settings.Minimap": "Ukryj/pokaż minimapę",
  "settings.SectorColors": "Kolory sektorowe",
  "settings.SectorColorsDesc": "Kolor tła różnych etykiet sektorowych. Kolory będą cykliczne, gdy będzie więcej sektorów niż kolorów.",
  "settings.MinimapFont": "Czcionka etykiety obozu",
  "settings.CampColor": "Kolor normalnego obozu",
  "settings.LeaderCampColor": "Kolor obozu przywódcy",
  "settings.CompletedCampColor": "Kolor ukończonego obozu",
  "settings.IgnoredCampColor": "Kolor zignorowanego obozu",
  "settings.BlockedCampColor": "Kolor blokowanego obozu",
  "settings.ChainAttackCampColor": "Kolor ataku w łańcuchu",
  "settings.OptionalCampColor": "Opcjonalny kolor obozu",
  "settings.UndefinedCampTransparency": "Przezroczystość nieokreślonego obozu",
  "settings.UndefinedCampTransparencyDesc": "Wartość przezroczystości nieokreślonych obozów na minimapie. Wartość musi wynosić od 0 do 90%",
  "settings.DefaultCampTransparency": "Domyślna przezroczystość obozu",
  "settings.DefaultCampTransparencyDesc": "Wartość przezroczystości dla nieokreślonych obozów na minimapie. Wartość musi wynosić od 0 do 90%",
  "settings.SaveCompleted": "Zapisywanie ukończonych obozów",
  "settings.SaveCompletedDesc": "Umożliwia zapisywanie ukończonych obozów, więc możliwe jest ponowne uruchomienie programu lub zmiana mapy bez utraty postępu",
  "settings.HideIgnoredLabels": "Ukryj etykiety dla ignorowanych obozów",
  "settings.HideUndefinedLabels": "Ukryj etykiety dla nieokreślonych obozów",
  "settings.HideBlockedLabels": "Ukryj etykiety dla zablokowanych obozów",
  "UI.ScoutingPost": "Stanica",
  "UI.PremiumFriend": "Premium dla znajomego"
}