{
  "tiedostonimi": "mistycake",
  "tunniste": "Birthday2020CakeMap",
  "nimi": "Misty Cake",
  "tyyppi": "Mission",
  "teema": "Retro",
  "xp": 521298,
  "pelaajia": 1,
  "elite": true,
  "yksiköt": [
    "TMC_BossFrostBearMatriarch",
    "TMC_BossRavagingOx",
    "TMC_BossGargantuanLynx",
    "BanditMilitia",
    "BanditCavalry",
    "EliteWildlifeRecruit",
    "EliteWildlifeMilitia",
    "EliteWildlifeCavalry",
    "EliteWildlifeAir",
    "EliteWildlifeBowman",
    "EliteWildlifeLongbowman",
    "EliteWildlifeCannoneer",
    "TMC_BossGhastlyWolf"
  ],
  "leirit": [
    {
      "tunniste": 10376,
      "sektori": 1,
      "oletusnimi": "1.1",
      "apunimi": "",
      "tyyppi": 1,
      "sijainti": "255, 313",
      "joukot": {
        "EliteWildlifeRecruit": 50,
        "EliteWildlifeCavalry": 25,
        "EliteWildlifeLongbowman": 75
      }
    },
    {
      "tunniste": 11346,
      "sektori": 2,
      "oletusnimi": "2.1",
      "apunimi": "",
      "tyyppi": 1,
      "sijainti": "226, 303",
      "joukot": {
        "EliteWildlifeMilitia": 75,
        "EliteWildlifeBowman": 50
      }
    },
    {
      "tunniste": 12121,
      "sektori": 3,
      "oletusnimi": "3.1",
      "apunimi": "",
      "tyyppi": 1,
      "sijainti": "204, 326",
      "joukot": {
        "EliteWildlifeMilitia": 50,
        "EliteWildlifeLongbowman": 25,
        "TMC_BossGhastlyWolf": 1
      }
    },
    {
      "tunniste": 12272,
      "sektori": 6,
      "oletusnimi": "6.1",
      "apunimi": "",
      "tyyppi": 1,
      "sijainti": "300, 131",
      "joukot": {
        "TMC_BossRavagingOx": 1,
        "EliteWildlifeMilitia": 50,
        "EliteWildlifeCavalry": 50
      }
    },
    {
      "tunniste": 12731,
      "sektori": 4,
      "oletusnimi": "4.1",
      "apunimi": "",
      "tyyppi": 1,
      "sijainti": "240, 211",
      "joukot": {
        "EliteWildlifeMilitia": 25,
        "EliteWildlifeAir": 50,
        "EliteWildlifeBowman": 55
      }
    },
    {
      "tunniste": 13517,
      "sektori": 5,
      "oletusnimi": "5.1",
      "apunimi": "",
      "tyyppi": 1,
      "sijainti": "285, 167",
      "joukot": {
        "EliteWildlifeMilitia": 25,
        "EliteWildlifeCavalry": 50,
        "EliteWildlifeCannoneer": 50
      }
    },
    {
      "tunniste": 17181,
      "sektori": 8,
      "oletusnimi": "8.1",
      "apunimi": "",
      "tyyppi": 1,
      "sijainti": "484, 126",
      "joukot": {
        "TMC_BossFrostBearMatriarch": 1,
        "EliteWildlifeRecruit": 50,
        "EliteWildlifeAir": 25
      }
    },
    {
      "tunniste": 18554,
      "sektori": 9,
      "oletusnimi": "9.1",
      "apunimi": "",
      "tyyppi": 1,
      "sijainti": "461, 213",
      "joukot": {
        "EliteWildlifeRecruit": 190
      }
    },
    {
      "tunniste": 19503,
      "sektori": 7,
      "oletusnimi": "7.1",
      "apunimi": "",
      "tyyppi": 1,
      "sijainti": "387, 130",
      "joukot": {
        "EliteWildlifeAir": 25,
        "EliteWildlifeCannoneer": 50,
        "EliteWildlifeRecruit": 50
      }
    },
    {
      "tunniste": 20376,
      "sektori": 1,
      "oletusnimi": "1.2",
      "apunimi": "",
      "tyyppi": 1,
      "sijainti": "255, 323",
      "joukot": {
        "EliteWildlifeMilitia": 75,
        "EliteWildlifeCavalry": 25,
        "EliteWildlifeAir": 25
      }
    },
    {
      "tunniste": 21346,
      "sektori": 2,
      "oletusnimi": "2.2",
      "apunimi": "",
      "tyyppi": 1,
      "sijainti": "226, 313",
      "joukot": {
        "EliteWildlifeRecruit": 100,
        "EliteWildlifeCavalry": 50
      }
    },
    {
      "tunniste": 22121,
      "sektori": 3,
      "oletusnimi": "3.2",
      "apunimi": "",
      "tyyppi": 1,
      "sijainti": "204, 336",
      "joukot": {
        "EliteWildlifeAir": 50,
        "EliteWildlifeCannoneer": 25,
        "TMC_BossGhastlyWolf": 1
      }
    },
    {
      "tunniste": 22272,
      "sektori": 6,
      "oletusnimi": "6.2",
      "apunimi": "",
      "tyyppi": 1,
      "sijainti": "300, 141",
      "joukot": {
        "TMC_BossRavagingOx": 1,
        "EliteWildlifeAir": 30,
        "EliteWildlifeCannoneer": 50
      }
    },
    {
      "tunniste": 22731,
      "sektori": 4,
      "oletusnimi": "4.2",
      "apunimi": "",
      "tyyppi": 1,
      "sijainti": "240, 221",
      "joukot": {
        "EliteWildlifeMilitia": 50,
        "EliteWildlifeCavalry": 50,
        "EliteWildlifeCannoneer": 30
      }
    },
    {
      "tunniste": 23517,
      "sektori": 5,
      "oletusnimi": "5.2",
      "apunimi": "",
      "tyyppi": 1,
      "sijainti": "285, 177",
      "joukot": {
        "EliteWildlifeMilitia": 35,
        "EliteWildlifeAir": 75,
        "EliteWildlifeLongbowman": 25
      }
    },
    {
      "tunniste": 27181,
      "sektori": 8,
      "oletusnimi": "8.2",
      "apunimi": "",
      "tyyppi": 1,
      "sijainti": "484, 136",
      "joukot": {
        "TMC_BossFrostBearMatriarch": 1,
        "EliteWildlifeAir": 25,
        "EliteWildlifeCannoneer": 35
      }
    },
    {
      "tunniste": 28554,
      "sektori": 9,
      "oletusnimi": "9.2",
      "apunimi": "",
      "tyyppi": 1,
      "sijainti": "461, 223",
      "joukot": {
        "EliteWildlifeLongbowman": 187
      }
    },
    {
      "tunniste": 29503,
      "sektori": 7,
      "oletusnimi": "7.2",
      "apunimi": "",
      "tyyppi": 1,
      "sijainti": "387, 140",
      "joukot": {
        "EliteWildlifeMilitia": 50,
        "EliteWildlifeCavalry": 50,
        "EliteWildlifeBowman": 50
      }
    },
    {
      "tunniste": 30376,
      "sektori": 1,
      "oletusnimi": "1.3",
      "apunimi": "",
      "tyyppi": 1,
      "sijainti": "255, 333",
      "joukot": {
        "EliteWildlifeRecruit": 20,
        "EliteWildlifeMilitia": 20,
        "EliteWildlifeAir": 70
      }
    },
    {
      "tunniste": 31346,
      "sektori": 2,
      "oletusnimi": "2.3",
      "apunimi": "",
      "tyyppi": 1,
      "sijainti": "226, 323",
      "joukot": {
        "EliteWildlifeMilitia": 50,
        "EliteWildlifeAir": 50
      }
    },
    {
      "tunniste": 32121,
      "sektori": 3,
      "oletusnimi": "3.3",
      "apunimi": "",
      "tyyppi": 1,
      "sijainti": "204, 346",
      "joukot": {
        "EliteWildlifeCavalry": 50,
        "EliteWildlifeAir": 50,
        "TMC_BossGhastlyWolf": 1
      }
    },
    {
      "tunniste": 32272,
      "sektori": 6,
      "oletusnimi": "6.3",
      "apunimi": "",
      "tyyppi": 1,
      "sijainti": "300, 151",
      "joukot": {
        "TMC_BossGargantuanLynx": 1,
        "BanditMilitia": 80,
        "BanditCavalry": 50
      }
    },
    {
      "tunniste": 32731,
      "sektori": 4,
      "oletusnimi": "4.3",
      "apunimi": "",
      "tyyppi": 1,
      "sijainti": "240, 231",
      "joukot": {
        "EliteWildlifeMilitia": 50,
        "EliteWildlifeAir": 25,
        "EliteWildlifeBowman": 50
      }
    },
    {
      "tunniste": 33517,
      "sektori": 5,
      "oletusnimi": "5.3",
      "apunimi": "",
      "tyyppi": 1,
      "sijainti": "285, 187",
      "joukot": {
        "EliteWildlifeRecruit": 100,
        "EliteWildlifeCavalry": 35,
        "EliteWildlifeAir": 30
      }
    },
    {
      "tunniste": 37181,
      "sektori": 8,
      "oletusnimi": "8.3",
      "apunimi": "",
      "tyyppi": 1,
      "sijainti": "484, 146",
      "joukot": {
        "TMC_BossFrostBearMatriarch": 1,
        "EliteWildlifeMilitia": 50,
        "EliteWildlifeCavalry": 50
      }
    },
    {
      "tunniste": 38554,
      "sektori": 9,
      "oletusnimi": "9.3",
      "apunimi": "",
      "tyyppi": 1,
      "sijainti": "461, 233",
      "joukot": {
        "EliteWildlifeAir": 160
      }
    },
    {
      "tunniste": 39503,
      "sektori": 7,
      "oletusnimi": "7.3",
      "apunimi": "",
      "tyyppi": 1,
      "sijainti": "387, 150",
      "joukot": {
        "EliteWildlifeRecruit": 50,
        "EliteWildlifeCavalry": 100,
        "EliteWildlifeAir": 25
      }
    }
  ]
}